\relax 
\providecommand\hyper@newdestlabel[2]{}
\abx@aux@sortscheme{anyt}
\abx@aux@refcontext{anyt/global/}
\providecommand\HyperFirstAtBeginDocument{\AtBeginDocument}
\HyperFirstAtBeginDocument{\ifx\hyper@anchor\@undefined
\global\let\oldcontentsline\contentsline
\gdef\contentsline#1#2#3#4{\oldcontentsline{#1}{#2}{#3}}
\global\let\oldnewlabel\newlabel
\gdef\newlabel#1#2{\newlabelxx{#1}#2}
\gdef\newlabelxx#1#2#3#4#5#6{\oldnewlabel{#1}{{#2}{#3}}}
\AtEndDocument{\ifx\hyper@anchor\@undefined
\let\contentsline\oldcontentsline
\let\newlabel\oldnewlabel
\fi}
\fi}
\global\let\hyper@last\relax 
\gdef\HyperFirstAtBeginDocument#1{#1}
\providecommand\HyField@AuxAddToFields[1]{}
\providecommand\HyField@AuxAddToCoFields[2]{}
\providecommand\@newglossary[4]{}
\@newglossary{main}{glg}{gls}{glo}
\@newglossary{acronym}{alg}{acr}{acn}
\@writefile{toc}{\boolfalse {citerequest}\boolfalse {citetracker}\boolfalse {pagetracker}\boolfalse {backtracker}\relax }
\@writefile{lof}{\boolfalse {citerequest}\boolfalse {citetracker}\boolfalse {pagetracker}\boolfalse {backtracker}\relax }
\@writefile{lot}{\boolfalse {citerequest}\boolfalse {citetracker}\boolfalse {pagetracker}\boolfalse {backtracker}\relax }
\select@language{english}
\@writefile{toc}{\defcounter {refsection}{0}\relax }\@writefile{toc}{\select@language{english}}
\@writefile{lof}{\defcounter {refsection}{0}\relax }\@writefile{lof}{\select@language{english}}
\@writefile{lot}{\defcounter {refsection}{0}\relax }\@writefile{lot}{\select@language{english}}
\@writefile{toc}{\defcounter {refsection}{0}\relax }\@writefile{toc}{\contentsline {section}{\numberline {1}Estimation in SAR Interferometry}{1}{section.1}}
\@writefile{toc}{\defcounter {refsection}{0}\relax }\@writefile{toc}{\contentsline {subsection}{\numberline {1.1}Introduction}{1}{subsection.1.1}}
\@writefile{lot}{\defcounter {refsection}{0}\relax }\@writefile{lot}{\contentsline {table}{\numberline {1}{\ignorespaces SAR dataset\relax }}{1}{table.caption.1}}
\providecommand*\caption@xref[2]{\@setref\relax\@undefined{#1}}
\newlabel{tab:datasetP1}{{1}{1}{SAR dataset\relax }{table.caption.1}{}}
\@writefile{lof}{\defcounter {refsection}{0}\relax }\@writefile{lof}{\contentsline {figure}{\numberline {1}{\ignorespaces  InPhase measurements\relax }}{1}{figure.caption.2}}
\newlabel{fig:inPhaseImages}{{1}{1}{InPhase measurements\relax }{figure.caption.2}{}}
\abx@aux@cite{kay1993fundamentals}
\abx@aux@segm{0}{0}{kay1993fundamentals}
\@writefile{toc}{\defcounter {refsection}{0}\relax }\@writefile{toc}{\contentsline {subsection}{\numberline {1.2}Estimation of Topography and Displacement-Rate}{2}{subsection.1.2}}
\newlabel{eq:InPhase}{{1}{2}{Estimation of Topography and Displacement-Rate}{equation.1.1}{}}
\newlabel{eq:InPhaseMatr}{{2}{2}{Estimation of Topography and Displacement-Rate}{equation.1.2}{}}
\newlabel{eq:xBLUE}{{3}{2}{Estimation of Topography and Displacement-Rate}{equation.1.3}{}}
\@writefile{lof}{\defcounter {refsection}{0}\relax }\@writefile{lof}{\contentsline {figure}{\numberline {2}{\ignorespaces  BLUE estimation\relax }}{2}{figure.caption.3}}
\newlabel{fig:BLUE_estimation}{{2}{2}{BLUE estimation\relax }{figure.caption.3}{}}
\@writefile{lof}{\defcounter {refsection}{0}\relax }\@writefile{lof}{\contentsline {figure}{\numberline {3}{\ignorespaces  Despeckled BLUE estimation\relax }}{3}{figure.caption.4}}
\newlabel{fig:BLUE_estimationFiltered}{{3}{3}{Despeckled BLUE estimation\relax }{figure.caption.4}{}}
\@writefile{toc}{\defcounter {refsection}{0}\relax }\@writefile{toc}{\contentsline {subsection}{\numberline {1.3}Estimation Performance}{3}{subsection.1.3}}
\@writefile{toc}{\defcounter {refsection}{0}\relax }\@writefile{toc}{\contentsline {paragraph}{Theoretical Evaluation}{3}{subsection.1.3}}
\newlabel{eq:errorRMS}{{4}{3}{Theoretical Evaluation}{equation.1.4}{}}
\@writefile{toc}{\defcounter {refsection}{0}\relax }\@writefile{toc}{\contentsline {paragraph}{Empirical Evaluation}{3}{equation.1.4}}
\@writefile{lof}{\defcounter {refsection}{0}\relax }\@writefile{lof}{\contentsline {figure}{\numberline {4}{\ignorespaces  Ground truth\relax }}{4}{figure.caption.5}}
\newlabel{fig:groundTruth}{{4}{4}{Ground truth\relax }{figure.caption.5}{}}
\@writefile{lof}{\defcounter {refsection}{0}\relax }\@writefile{lof}{\contentsline {figure}{\numberline {5}{\ignorespaces  Local error\relax }}{5}{figure.caption.6}}
\newlabel{fig:localError}{{5}{5}{Local error\relax }{figure.caption.6}{}}
\@writefile{toc}{\defcounter {refsection}{0}\relax }\@writefile{toc}{\contentsline {section}{\numberline {2}Radar Target Detection}{6}{section.2}}
\newlabel{eq:receivedSignal}{{5}{6}{Radar Target Detection}{equation.2.5}{}}
\@writefile{lot}{\defcounter {refsection}{0}\relax }\@writefile{lot}{\contentsline {table}{\numberline {2}{\ignorespaces Passive radar dataset\relax }}{6}{table.caption.7}}
\newlabel{tab:datasetP2}{{2}{6}{Passive radar dataset\relax }{table.caption.7}{}}
\newlabel{eq:}{{6}{6}{Radar Target Detection}{equation.2.6}{}}
\@writefile{lof}{\defcounter {refsection}{0}\relax }\@writefile{lof}{\contentsline {figure}{\numberline {6}{\ignorespaces  Spectral analysis of direct and received signals\relax }}{6}{figure.caption.8}}
\newlabel{fig:directAndReceivedSignals}{{6}{6}{Spectral analysis of direct and received signals\relax }{figure.caption.8}{}}
\@writefile{toc}{\defcounter {refsection}{0}\relax }\@writefile{toc}{\contentsline {subsection}{\numberline {2.1}Target Detection}{7}{subsection.2.1}}
\@writefile{toc}{\defcounter {refsection}{0}\relax }\@writefile{toc}{\contentsline {subsubsection}{\numberline {2.1.1}Detection Based on the Knowledge of $x(t)$ and $y(t)$}{7}{subsubsection.2.1.1}}
\newlabel{eq:crossCorrel_def}{{7}{7}{Detection Based on the Knowledge of $x(t)$ and $y(t)$}{equation.2.7}{}}
\newlabel{eq:crossCorrel_comp}{{8}{7}{Detection Based on the Knowledge of $x(t)$ and $y(t)$}{equation.2.8}{}}
\newlabel{eq:crossCorrel_norm}{{9}{7}{Detection Based on the Knowledge of $x(t)$ and $y(t)$}{equation.2.9}{}}
\@writefile{lof}{\defcounter {refsection}{0}\relax }\@writefile{lof}{\contentsline {figure}{\numberline {7}{\ignorespaces  Scaled cross-correlation between received and direct signals\relax }}{7}{figure.caption.9}}
\newlabel{fig:cross_correl_xy}{{7}{7}{Scaled cross-correlation between received and direct signals\relax }{figure.caption.9}{}}
\newlabel{eq:echo_freq}{{10}{8}{Detection Based on the Knowledge of $x(t)$ and $y(t)$}{equation.2.10}{}}
\newlabel{eq:echo_time}{{11}{8}{Detection Based on the Knowledge of $x(t)$ and $y(t)$}{equation.2.11}{}}
\@writefile{lof}{\defcounter {refsection}{0}\relax }\@writefile{lof}{\contentsline {figure}{\numberline {8}{\ignorespaces  Received echo from scattering targets\relax }}{8}{figure.caption.10}}
\newlabel{fig:echo_time}{{8}{8}{Received echo from scattering targets\relax }{figure.caption.10}{}}
\@writefile{lot}{\defcounter {refsection}{0}\relax }\@writefile{lot}{\contentsline {table}{\numberline {3}{\ignorespaces Lags and corresponding amplitude coefficients\relax }}{8}{table.caption.11}}
\newlabel{tab:lags_and_amplitudes}{{3}{8}{Lags and corresponding amplitude coefficients\relax }{table.caption.11}{}}
\@writefile{toc}{\defcounter {refsection}{0}\relax }\@writefile{toc}{\contentsline {subsubsection}{\numberline {2.1.2}Detection Based on the Knowledge of $y(t)$ Only}{9}{subsubsection.2.1.2}}
\@writefile{lof}{\defcounter {refsection}{0}\relax }\@writefile{lof}{\contentsline {figure}{\numberline {9}{\ignorespaces  Auto-correlation of the received signal\relax }}{9}{figure.caption.12}}
\newlabel{fig:auto_correl_yy}{{9}{9}{Auto-correlation of the received signal\relax }{figure.caption.12}{}}
\@writefile{toc}{\defcounter {refsection}{0}\relax }\@writefile{toc}{\contentsline {subsection}{\numberline {2.2}Effect of Reducing the Processed Data Volume}{9}{subsection.2.2}}
\@writefile{lof}{\defcounter {refsection}{0}\relax }\@writefile{lof}{\contentsline {figure}{\numberline {10}{\ignorespaces  Spectral analysis of the truncated direct and received signals\relax }}{9}{figure.caption.13}}
\newlabel{fig:directAndReceivedSignals_red}{{10}{9}{Spectral analysis of the truncated direct and received signals\relax }{figure.caption.13}{}}
\@writefile{toc}{\defcounter {refsection}{0}\relax }\@writefile{toc}{\contentsline {subsubsection}{\numberline {2.2.1}Detection Based on the Knowledge of $x(t)$ and $y(t)$}{10}{subsubsection.2.2.1}}
\@writefile{lof}{\defcounter {refsection}{0}\relax }\@writefile{lof}{\contentsline {figure}{\numberline {11}{\ignorespaces  Cross-correlation between the truncated signals\relax }}{10}{figure.caption.14}}
\newlabel{fig:cross_correl_xy_red}{{11}{10}{Cross-correlation between the truncated signals\relax }{figure.caption.14}{}}
\@writefile{toc}{\defcounter {refsection}{0}\relax }\@writefile{toc}{\contentsline {subsubsection}{\numberline {2.2.2}Detection Based on the Knowledge of $y(t)$ Only}{10}{subsubsection.2.2.2}}
\@writefile{lof}{\defcounter {refsection}{0}\relax }\@writefile{lof}{\contentsline {figure}{\numberline {12}{\ignorespaces  Auto-correlation of the truncated received signal\relax }}{10}{figure.caption.15}}
\newlabel{fig:auto_correl_yy_red}{{12}{10}{Auto-correlation of the truncated received signal\relax }{figure.caption.15}{}}
\abx@aux@refcontextdefaultsdone
\abx@aux@defaultrefcontext{0}{kay1993fundamentals}{anyt/global/}
\abx@aux@defaultrefcontext{0}{orfanidis1988optimum}{anyt/global/}
\abx@aux@defaultrefcontext{0}{papoulis2002probability}{anyt/global/}
\abx@aux@defaultrefcontext{0}{principles2007guidelines}{anyt/global/}
