[0] Config.pm:354> INFO - This is Biber 2.7
[0] Config.pm:357> INFO - Logfile is '/Users/massimopiazza/Polimi/V Year/Remote Sensing/Assignments/HW1/Report/.texpadtmp/report_RSEOS_HW1.blg'
[43] biber-darwin:303> INFO - === Fri Dec 27, 2019, 22:48:45
[69] Biber.pm:359> INFO - Reading '/Users/massimopiazza/Polimi/V Year/Remote Sensing/Assignments/HW1/Report/.texpadtmp/report_RSEOS_HW1.bcf'
[158] Biber.pm:832> INFO - Using all citekeys in bib section 0
[171] Biber.pm:3670> INFO - Processing section 0
[187] Biber.pm:3840> INFO - Looking for bibtex format file '/Users/massimopiazza/Polimi/V Year/Remote Sensing/Assignments/HW1/Report/bibliography.bib' for section 0
[188] bibtex.pm:1435> INFO - Decoding LaTeX character macros into UTF-8
[192] bibtex.pm:1292> INFO - Found BibTeX data source '/Users/massimopiazza/Polimi/V Year/Remote Sensing/Assignments/HW1/Report/bibliography.bib'
[208] UCollate.pm:68> INFO - Overriding locale 'en-US' defaults 'variable = shifted' with 'variable = non-ignorable'
[208] UCollate.pm:68> INFO - Overriding locale 'en-US' defaults 'normalization = NFD' with 'normalization = prenormalized'
[208] Biber.pm:3499> INFO - Sorting list 'anyt/global/' of type 'entry' with scheme 'anyt' and locale 'en-US'
[208] Biber.pm:3505> INFO - No sort tailoring available for locale 'en-US'
[213] bbl.pm:608> INFO - Writing '/Users/massimopiazza/Polimi/V Year/Remote Sensing/Assignments/HW1/Report/.texpadtmp/report_RSEOS_HW1.bbl' with encoding 'UTF-8'
[214] bbl.pm:712> INFO - Output to /Users/massimopiazza/Polimi/V Year/Remote Sensing/Assignments/HW1/Report/.texpadtmp/report_RSEOS_HW1.bbl
