\BOOKMARK [1][-]{section.1}{Estimation in SAR Interferometry}{}% 1
\BOOKMARK [2][-]{subsection.1.1}{Introduction}{section.1}% 2
\BOOKMARK [2][-]{subsection.1.2}{Estimation of Topography and Displacement-Rate}{section.1}% 3
\BOOKMARK [2][-]{subsection.1.3}{Estimation Performance}{section.1}% 4
\BOOKMARK [1][-]{section.2}{Radar Target Detection}{}% 5
\BOOKMARK [2][-]{subsection.2.1}{Target Detection}{section.2}% 6
\BOOKMARK [3][-]{subsubsection.2.1.1}{Detection Based on the Knowledge of x\(t\) and y\(t\)}{subsection.2.1}% 7
\BOOKMARK [3][-]{subsubsection.2.1.2}{Detection Based on the Knowledge of y\(t\) Only}{subsection.2.1}% 8
\BOOKMARK [2][-]{subsection.2.2}{Effect of Reducing the Processed Data Volume}{section.2}% 9
\BOOKMARK [3][-]{subsubsection.2.2.1}{Detection Based on the Knowledge of x\(t\) and y\(t\)}{subsection.2.2}% 10
\BOOKMARK [3][-]{subsubsection.2.2.2}{Detection Based on the Knowledge of y\(t\) Only}{subsection.2.2}% 11
