
Time = 12369.00  -  Thrust = 0.87
Time = 12405.00  -  Thrust = 0.87
Time = 12442.00  -  Thrust = 6.00
Time = 12478.00  -  Thrust = 6.00
Time = 12514.00  -  Thrust = 6.00
Time = 12551.00  -  Thrust = 21.00
Time = 12589.00  -  Thrust = 21.00
Time = 12626.00  -  Thrust = 49.84
Time = 12663.00  -  Thrust = 49.84
Time = 12701.00  -  Thrust = 96.40
Time = 12738.00  -  Thrust = 96.40
Time = 12775.00  -  Thrust = 96.40
Time = 12813.00  -  Thrust = 145.49
Time = 12852.00  -  Thrust = 145.49
Time = 12891.00  -  Thrust = 188.24
Time = 12929.00  -  Thrust = 188.24
Time = 12967.00  -  Thrust = 221.62
Time = 13005.00  -  Thrust = 221.62
Time = 13044.00  -  Thrust = 248.01
Time = 13082.00  -  Thrust = 248.01
Time = 13121.00  -  Thrust = 248.01
Time = 13160.00  -  Thrust = 271.66
Time = 13198.00  -  Thrust = 271.66
Time = 13237.00  -  Thrust = 294.73
Time = 13275.00  -  Thrust = 294.73
Time = 13314.00  -  Thrust = 317.47
Time = 13351.00  -  Thrust = 317.47
Time = 13390.00  -  Thrust = 317.47
Time = 13429.00  -  Thrust = 338.07
Time = 13467.00  -  Thrust = 338.07
Time = 13506.00  -  Thrust = 354.28
Time = 13544.00  -  Thrust = 354.28
Time = 13583.00  -  Thrust = 366.24
Time = 13621.00  -  Thrust = 366.24
Time = 13660.00  -  Thrust = 376.23
Time = 13698.00  -  Thrust = 376.23
Time = 13736.00  -  Thrust = 376.23
Time = 13775.00  -  Thrust = 384.81
Time = 13813.00  -  Thrust = 384.81
Time = 13852.00  -  Thrust = 389.26
Time = 13890.00  -  Thrust = 389.26
Time = 13929.00  -  Thrust = 389.26
Time = 13967.00  -  Thrust = 389.26
Time = 14006.00  -  Thrust = 384.07
Time = 14044.00  -  Thrust = 384.07
Time = 14083.00  -  Thrust = 384.07
Time = 14121.00  -  Thrust = 365.33
Time = 14159.00  -  Thrust = 365.33
Time = 14198.00  -  Thrust = 329.13
Time = 14236.00  -  Thrust = 329.13
Time = 14275.00  -  Thrust = 290.77
Time = 14313.00  -  Thrust = 290.77
Time = 14352.00  -  Thrust = 259.47
Time = 14391.00  -  Thrust = 259.47
Time = 14429.00  -  Thrust = 259.47
Time = 14468.00  -  Thrust = 237.75
Time = 14505.00  -  Thrust = 237.75
Time = 14544.00  -  Thrust = 223.17
Time = 14583.00  -  Thrust = 223.17
Time = 14622.00  -  Thrust = 211.73
Time = 14660.00  -  Thrust = 211.73
Time = 14699.00  -  Thrust = 200.61
Time = 14737.00  -  Thrust = 200.61
Time = 14775.00  -  Thrust = 200.61
Time = 14814.00  -  Thrust = 189.48
Time = 14853.00  -  Thrust = 189.48
Time = 14892.00  -  Thrust = 180.55
Time = 14929.00  -  Thrust = 180.55
Time = 14968.00  -  Thrust = 176.33
Time = 15006.00  -  Thrust = 176.33
Time = 15044.00  -  Thrust = 176.33
Time = 15083.00  -  Thrust = 176.31
Time = 15122.00  -  Thrust = 176.31
Time = 15161.00  -  Thrust = 176.54
Time = 15199.00  -  Thrust = 176.54
Time = 15238.00  -  Thrust = 179.00
Time = 15276.00  -  Thrust = 179.00
Time = 15314.00  -  Thrust = 182.18
Time = 15352.00  -  Thrust = 182.18
Time = 15391.00  -  Thrust = 182.18
Time = 15430.00  -  Thrust = 186.01
Time = 15468.00  -  Thrust = 186.01
Time = 15507.00  -  Thrust = 190.11
Time = 15545.00  -  Thrust = 190.11
Time = 15584.00  -  Thrust = 193.57
Time = 15622.00  -  Thrust = 193.57
Time = 15661.00  -  Thrust = 196.22
Time = 15698.00  -  Thrust = 196.22
Time = 15737.00  -  Thrust = 196.22
Time = 15776.00  -  Thrust = 198.56
Time = 15814.00  -  Thrust = 198.56
Time = 15853.00  -  Thrust = 200.11
Time = 15891.00  -  Thrust = 200.11
Time = 15930.00  -  Thrust = 201.86
Time = 15968.00  -  Thrust = 201.86
Time = 16007.00  -  Thrust = 204.17
Time = 16045.00  -  Thrust = 204.17
Time = 16083.00  -  Thrust = 204.17
Time = 16122.00  -  Thrust = 206.72
Time = 16160.00  -  Thrust = 206.72
Time = 16199.00  -  Thrust = 209.47
Time = 16237.00  -  Thrust = 209.47
Time = 16276.00  -  Thrust = 212.92
Time = 16315.00  -  Thrust = 212.92
Time = 16354.00  -  Thrust = 217.63
Time = 16392.00  -  Thrust = 217.63
Time = 16430.00  -  Thrust = 217.63
Time = 16468.00  -  Thrust = 222.79
Time = 16506.00  -  Thrust = 222.79
Time = 16545.00  -  Thrust = 228.42
Time = 16584.00  -  Thrust = 228.42
Time = 16623.00  -  Thrust = 232.94
Time = 16661.00  -  Thrust = 232.94
Time = 16700.00  -  Thrust = 235.50
Time = 16738.00  -  Thrust = 235.50
Time = 16776.00  -  Thrust = 235.50
Time = 16815.00  -  Thrust = 237.65
Time = 16854.00  -  Thrust = 237.65
Time = 16892.00  -  Thrust = 239.73
Time = 16930.00  -  Thrust = 239.73
Time = 16969.00  -  Thrust = 241.75
Time = 17007.00  -  Thrust = 241.75
Time = 17046.00  -  Thrust = 241.75
Time = 17085.00  -  Thrust = 244.17
Time = 17123.00  -  Thrust = 244.17
Time = 17162.00  -  Thrust = 247.36
Time = 17200.00  -  Thrust = 247.36
Time = 17239.00  -  Thrust = 251.69
Time = 17276.00  -  Thrust = 251.69
Time = 17315.00  -  Thrust = 256.47
Time = 17353.00  -  Thrust = 256.47
Time = 17392.00  -  Thrust = 256.47
Time = 17431.00  -  Thrust = 261.65
Time = 17469.00  -  Thrust = 261.65
Time = 17508.00  -  Thrust = 265.29
Time = 17546.00  -  Thrust = 265.29
Time = 17585.00  -  Thrust = 267.99
Time = 17623.00  -  Thrust = 267.99
Time = 17661.00  -  Thrust = 270.72
Time = 17699.00  -  Thrust = 270.72
Time = 17738.00  -  Thrust = 270.72
Time = 17777.00  -  Thrust = 273.18
Time = 17815.00  -  Thrust = 273.18
Time = 17854.00  -  Thrust = 275.15
Time = 17892.00  -  Thrust = 275.15
Time = 17931.00  -  Thrust = 276.15
Time = 17969.00  -  Thrust = 276.15
Time = 18008.00  -  Thrust = 276.60
Time = 18046.00  -  Thrust = 276.60
Time = 18084.00  -  Thrust = 276.60
Time = 18123.00  -  Thrust = 276.46
Time = 18161.00  -  Thrust = 276.46
Time = 18200.00  -  Thrust = 276.88
Time = 18238.00  -  Thrust = 276.88
Time = 18277.00  -  Thrust = 277.26
Time = 18316.00  -  Thrust = 277.26
Time = 18355.00  -  Thrust = 277.26
Time = 18393.00  -  Thrust = 277.26
Time = 18430.00  -  Thrust = 277.26
Time = 18469.00  -  Thrust = 275.47
Time = 18508.00  -  Thrust = 275.47
Time = 18546.00  -  Thrust = 270.82
Time = 18585.00  -  Thrust = 270.82
Time = 18624.00  -  Thrust = 262.81
Time = 18662.00  -  Thrust = 262.81
Time = 18701.00  -  Thrust = 251.57
Time = 18739.00  -  Thrust = 251.57
Time = 18778.00  -  Thrust = 251.57
Time = 18817.00  -  Thrust = 237.10
Time = 18854.00  -  Thrust = 237.10
Time = 18893.00  -  Thrust = 220.08
Time = 18931.00  -  Thrust = 220.08
Time = 18970.00  -  Thrust = 201.48
Time = 19008.00  -  Thrust = 201.48
Time = 19047.00  -  Thrust = 201.48
Time = 19086.00  -  Thrust = 182.92
Time = 19124.00  -  Thrust = 182.92
Time = 19163.00  -  Thrust = 164.46
Time = 19201.00  -  Thrust = 164.46
Time = 19239.00  -  Thrust = 145.53
Time = 19277.00  -  Thrust = 145.53
Time = 19316.00  -  Thrust = 126.49
Time = 19354.00  -  Thrust = 126.49
Time = 19393.00  -  Thrust = 126.49
Time = 19432.00  -  Thrust = 106.90
Time = 19470.00  -  Thrust = 106.90
Time = 19509.00  -  Thrust = 87.49
Time = 19546.00  -  Thrust = 87.49
Time = 19584.00  -  Thrust = 68.00
Time = 19620.00  -  Thrust = 68.00
Time = 19658.00  -  Thrust = 49.23
Time = 19695.00  -  Thrust = 49.23
Time = 19733.00  -  Thrust = 49.23
Time = 19771.00  -  Thrust = 32.28
Time = 19808.00  -  Thrust = 32.28
Time = 19846.00  -  Thrust = 17.31
Time = 19883.00  -  Thrust = 17.31
Time = 19920.00  -  Thrust = 4.79
Time = 19956.00  -  Thrust = 4.79
Time = 19993.00  -  Thrust = 4.79
