

Time = 12288.00  -  Thrust = 0.08
Time = 12323.00  -  Thrust = 0.08
Time = 12360.00  -  Thrust = 1.68
Time = 12396.00  -  Thrust = 1.68
Time = 12433.00  -  Thrust = 1.68
Time = 12470.00  -  Thrust = 8.09
Time = 12506.00  -  Thrust = 8.09
Time = 12542.00  -  Thrust = 24.82
Time = 12579.00  -  Thrust = 24.82
Time = 12617.00  -  Thrust = 55.95
Time = 12654.00  -  Thrust = 55.95
Time = 12692.00  -  Thrust = 55.95
Time = 12730.00  -  Thrust = 102.30
Time = 12768.00  -  Thrust = 102.30
Time = 12807.00  -  Thrust = 146.51
Time = 12845.00  -  Thrust = 146.51
Time = 12883.00  -  Thrust = 185.45
Time = 12921.00  -  Thrust = 185.45
Time = 12960.00  -  Thrust = 185.45
Time = 12999.00  -  Thrust = 216.40
Time = 13037.00  -  Thrust = 216.40
Time = 13076.00  -  Thrust = 241.47
Time = 13114.00  -  Thrust = 241.47
Time = 13153.00  -  Thrust = 263.13
Time = 13191.00  -  Thrust = 263.13
Time = 13230.00  -  Thrust = 283.48
Time = 13267.00  -  Thrust = 283.48
Time = 13306.00  -  Thrust = 283.48
Time = 13345.00  -  Thrust = 303.95
Time = 13383.00  -  Thrust = 303.95
Time = 13422.00  -  Thrust = 324.03
Time = 13460.00  -  Thrust = 324.03
Time = 13499.00  -  Thrust = 341.92
Time = 13537.00  -  Thrust = 341.92
Time = 13576.00  -  Thrust = 357.02
Time = 13614.00  -  Thrust = 357.02
Time = 13652.00  -  Thrust = 357.02
Time = 13691.00  -  Thrust = 370.15
Time = 13729.00  -  Thrust = 370.15
Time = 13768.00  -  Thrust = 380.90
Time = 13806.00  -  Thrust = 380.90
Time = 13845.00  -  Thrust = 385.58
Time = 13883.00  -  Thrust = 385.58
Time = 13922.00  -  Thrust = 385.86
Time = 13961.00  -  Thrust = 385.86
Time = 13999.00  -  Thrust = 385.86
Time = 14038.00  -  Thrust = 381.18
Time = 14075.00  -  Thrust = 381.18
Time = 14114.00  -  Thrust = 363.03
Time = 14153.00  -  Thrust = 363.03
Time = 14192.00  -  Thrust = 331.54
Time = 14230.00  -  Thrust = 331.54
Time = 14269.00  -  Thrust = 304.33
Time = 14307.00  -  Thrust = 304.33
Time = 14345.00  -  Thrust = 304.33
Time = 14384.00  -  Thrust = 282.67
Time = 14423.00  -  Thrust = 282.67
Time = 14461.00  -  Thrust = 267.30
Time = 14499.00  -  Thrust = 267.30
Time = 14538.00  -  Thrust = 257.24
Time = 14576.00  -  Thrust = 257.24
Time = 14615.00  -  Thrust = 249.98
Time = 14653.00  -  Thrust = 249.98
Time = 14692.00  -  Thrust = 249.98
Time = 14731.00  -  Thrust = 242.66
Time = 14769.00  -  Thrust = 242.66
Time = 14808.00  -  Thrust = 235.29
Time = 14845.00  -  Thrust = 235.29
Time = 14884.00  -  Thrust = 229.60
Time = 14922.00  -  Thrust = 229.60
Time = 14961.00  -  Thrust = 229.60
Time = 15000.00  -  Thrust = 226.82
Time = 15038.00  -  Thrust = 226.82
Time = 15077.00  -  Thrust = 224.77
Time = 15115.00  -  Thrust = 224.77
Time = 15154.00  -  Thrust = 226.17
Time = 15192.00  -  Thrust = 226.17
Time = 15230.00  -  Thrust = 229.36
Time = 15268.00  -  Thrust = 229.36
Time = 15307.00  -  Thrust = 229.36
Time = 15346.00  -  Thrust = 232.58
Time = 15384.00  -  Thrust = 232.58
Time = 15423.00  -  Thrust = 236.70
Time = 15461.00  -  Thrust = 236.70
Time = 15500.00  -  Thrust = 239.95
Time = 15538.00  -  Thrust = 239.95
Time = 15577.00  -  Thrust = 241.70
Time = 15616.00  -  Thrust = 241.70
Time = 15653.00  -  Thrust = 241.70
Time = 15692.00  -  Thrust = 243.44
Time = 15730.00  -  Thrust = 243.44
Time = 15769.00  -  Thrust = 244.37
Time = 15807.00  -  Thrust = 244.37
Time = 15846.00  -  Thrust = 244.68
Time = 15885.00  -  Thrust = 244.68
Time = 15924.00  -  Thrust = 245.22
Time = 15962.00  -  Thrust = 245.22
Time = 16000.00  -  Thrust = 245.22
Time = 16038.00  -  Thrust = 249.08
Time = 16076.00  -  Thrust = 249.08
Time = 16115.00  -  Thrust = 252.67
Time = 16154.00  -  Thrust = 252.67
Time = 16193.00  -  Thrust = 255.42
Time = 16231.00  -  Thrust = 255.42
Time = 16270.00  -  Thrust = 257.21
Time = 16308.00  -  Thrust = 257.21
Time = 16346.00  -  Thrust = 257.21
Time = 16385.00  -  Thrust = 257.21
Time = 16423.00  -  Thrust = 257.21
Time = 16462.00  -  Thrust = 256.56
Time = 16500.00  -  Thrust = 256.56
Time = 16539.00  -  Thrust = 255.32
Time = 16577.00  -  Thrust = 255.32
Time = 16616.00  -  Thrust = 254.77
Time = 16654.00  -  Thrust = 254.77
Time = 16693.00  -  Thrust = 254.77
Time = 16732.00  -  Thrust = 254.24
Time = 16770.00  -  Thrust = 254.24
Time = 16808.00  -  Thrust = 254.99
Time = 16846.00  -  Thrust = 254.99
Time = 16885.00  -  Thrust = 257.74
Time = 16923.00  -  Thrust = 257.74
Time = 16962.00  -  Thrust = 257.74
Time = 17001.00  -  Thrust = 260.81
Time = 17039.00  -  Thrust = 260.81
Time = 17078.00  -  Thrust = 262.64
Time = 17116.00  -  Thrust = 262.64
Time = 17155.00  -  Thrust = 262.92
Time = 17192.00  -  Thrust = 262.92
Time = 17231.00  -  Thrust = 261.62
Time = 17269.00  -  Thrust = 261.62
Time = 17308.00  -  Thrust = 261.62
Time = 17347.00  -  Thrust = 259.11
Time = 17385.00  -  Thrust = 259.11
Time = 17424.00  -  Thrust = 254.17
Time = 17462.00  -  Thrust = 254.17
Time = 17501.00  -  Thrust = 247.59
Time = 17539.00  -  Thrust = 247.59
Time = 17577.00  -  Thrust = 242.03
Time = 17616.00  -  Thrust = 242.03
Time = 17654.00  -  Thrust = 242.03
Time = 17693.00  -  Thrust = 237.24
Time = 17731.00  -  Thrust = 237.24
Time = 17770.00  -  Thrust = 235.20
Time = 17808.00  -  Thrust = 235.20
Time = 17847.00  -  Thrust = 236.03
Time = 17886.00  -  Thrust = 236.03
Time = 17925.00  -  Thrust = 237.38
Time = 17963.00  -  Thrust = 237.38
Time = 18000.00  -  Thrust = 237.38
Time = 18039.00  -  Thrust = 239.64
Time = 18078.00  -  Thrust = 239.64
Time = 18117.00  -  Thrust = 241.95
Time = 18155.00  -  Thrust = 241.95
Time = 18194.00  -  Thrust = 241.50
Time = 18232.00  -  Thrust = 241.50
Time = 18271.00  -  Thrust = 238.18
Time = 18309.00  -  Thrust = 238.18
Time = 18348.00  -  Thrust = 238.18
Time = 18386.00  -  Thrust = 232.78
Time = 18424.00  -  Thrust = 232.78
Time = 18463.00  -  Thrust = 223.20
Time = 18501.00  -  Thrust = 223.20
Time = 18540.00  -  Thrust = 210.67
Time = 18578.00  -  Thrust = 210.67
Time = 18617.00  -  Thrust = 196.10
Time = 18655.00  -  Thrust = 196.10
Time = 18694.00  -  Thrust = 196.10
Time = 18733.00  -  Thrust = 181.40
Time = 18770.00  -  Thrust = 181.40
Time = 18809.00  -  Thrust = 167.76
Time = 18847.00  -  Thrust = 167.76
Time = 18886.00  -  Thrust = 154.42
Time = 18924.00  -  Thrust = 154.42
Time = 18963.00  -  Thrust = 154.42
Time = 19002.00  -  Thrust = 140.65
Time = 19040.00  -  Thrust = 140.65
Time = 19079.00  -  Thrust = 126.74
Time = 19117.00  -  Thrust = 126.74
Time = 19155.00  -  Thrust = 112.56
Time = 19193.00  -  Thrust = 112.56
Time = 19232.00  -  Thrust = 97.63
Time = 19269.00  -  Thrust = 97.63
Time = 19307.00  -  Thrust = 97.63
Time = 19345.00  -  Thrust = 81.34
Time = 19382.00  -  Thrust = 81.34
Time = 19420.00  -  Thrust = 64.36
Time = 19457.00  -  Thrust = 64.36
Time = 19494.00  -  Thrust = 48.06
Time = 19531.00  -  Thrust = 48.06
Time = 19569.00  -  Thrust = 48.06
Time = 19607.00  -  Thrust = 31.20
Time = 19644.00  -  Thrust = 31.20
Time = 19682.00  -  Thrust = 15.78
Time = 19719.00  -  Thrust = 15.78
Time = 19757.00  -  Thrust = 2.64
Time = 19792.00  -  Thrust = 2.64
Time = 19829.00  -  Thrust = 2.64