$ NASTRAN input file created by the Patran 2014.1 64-Bit input file
$ translator on May       02, 2016 at 17:05:07.
$ Direct Text Input for Nastran System Cell Section
$ Direct Text Input for File Management Section
$ Direct Text Input for Executive Control
$ Normal Modes Analysis, Database
SOL 103
CEND
$ Direct Text Input for Global Case Control Data
TITLE = MSC.Nastran job created on 02-May-16 at 12:42:51
ECHO = NONE
$ Using Nastran default values for RESVEC
SUBCASE 1
   SUBTITLE=Launch Modal
   METHOD = 1
   SPC = 2
   VECTOR(PLOT,SORT1,REAL)=ALL
   ESE(PLOT)=ALL
$ Direct Text Input for this Subcase
BEGIN BULK
$ Direct Text Input for Bulk Data
PARAM    POST    0
PARAM   PRTMAXIM YES
EIGRL    1                       10      0                       MASS
$ Elements and Element Properties for region : uppe-lower_platform
PSHELL   1       1      .1       1               1
$ Pset: "uppe-lower_platform" will be imported as: "pshell.1"
CQUAD4   235     1       362     363     366     367     0.      0.
CQUAD4   236     1       363     1       2       366     0.      0.
CQUAD4   237     1       367     366     369     370     0.      0.
CQUAD4   238     1       366     2       3       369     0.      0.
CQUAD4   239     1       362     367     371     361     0.      0.
CQUAD4   240     1       367     370     372     371     0.      0.
CQUAD4   241     1       370     369     373     372     0.      0.
CQUAD4   242     1       369     3       4       373     0.      0.
CQUAD4   243     1       1       2       380     379     0.      0.
CQUAD4   244     1       2       3       381     380     0.      0.
CQUAD4   245     1       3       4       382     381     0.      0.
CQUAD4   246     1       379     380     384     383     0.      0.
CQUAD4   247     1       380     381     385     384     0.      0.
CQUAD4   248     1       381     382     386     385     0.      0.
CQUAD4   249     1       383     384     388     387     0.      0.
CQUAD4   250     1       384     385     389     388     0.      0.
CQUAD4   251     1       385     386     390     389     0.      0.
CQUAD4   252     1       387     388     392     391     0.      0.
CQUAD4   253     1       388     389     393     392     0.      0.
CQUAD4   254     1       389     390     394     393     0.      0.
CQUAD4   255     1       391     392     396     395     0.      0.
CQUAD4   256     1       392     393     397     396     0.      0.
CQUAD4   257     1       393     394     398     397     0.      0.
CQUAD4   258     1       361     371     407     410     0.      0.
CQUAD4   259     1       371     372     404     407     0.      0.
CQUAD4   260     1       372     373     405     404     0.      0.
CQUAD4   261     1       373     4       46      405     0.      0.
CQUAD4   262     1       404     405     408     407     0.      0.
CQUAD4   263     1       405     46      47      408     0.      0.
CQUAD4   264     1       407     408     411     410     0.      0.
CQUAD4   265     1       408     47      48      411     0.      0.
CQUAD4   266     1       4       46      418     382     0.      0.
CQUAD4   267     1       46      47      419     418     0.      0.
CQUAD4   268     1       47      48      420     419     0.      0.
CQUAD4   269     1       382     418     422     386     0.      0.
CQUAD4   270     1       418     419     423     422     0.      0.
CQUAD4   271     1       419     420     424     423     0.      0.
CQUAD4   272     1       386     422     426     390     0.      0.
CQUAD4   273     1       422     423     427     426     0.      0.
CQUAD4   274     1       423     424     428     427     0.      0.
CQUAD4   275     1       390     426     430     394     0.      0.
CQUAD4   276     1       426     427     431     430     0.      0.
CQUAD4   277     1       427     428     432     431     0.      0.
CQUAD4   278     1       394     430     434     398     0.      0.
CQUAD4   279     1       430     431     435     434     0.      0.
CQUAD4   280     1       431     432     436     435     0.      0.
CQUAD4   281     1       410     411     442     443     0.      0.
CQUAD4   282     1       411     48      90      442     0.      0.
CQUAD4   283     1       443     442     445     446     0.      0.
CQUAD4   284     1       442     90      91      445     0.      0.
CQUAD4   285     1       410     443     447     361     0.      0.
CQUAD4   286     1       443     446     448     447     0.      0.
CQUAD4   287     1       446     445     449     448     0.      0.
CQUAD4   288     1       445     91      92      449     0.      0.
CQUAD4   289     1       48      90      456     420     0.      0.
CQUAD4   290     1       90      91      457     456     0.      0.
CQUAD4   291     1       91      92      458     457     0.      0.
CQUAD4   292     1       420     456     460     424     0.      0.
CQUAD4   293     1       456     457     461     460     0.      0.
CQUAD4   294     1       457     458     462     461     0.      0.
CQUAD4   295     1       424     460     464     428     0.      0.
CQUAD4   296     1       460     461     465     464     0.      0.
CQUAD4   297     1       461     462     466     465     0.      0.
CQUAD4   298     1       428     464     468     432     0.      0.
CQUAD4   299     1       464     465     469     468     0.      0.
CQUAD4   300     1       465     466     470     469     0.      0.
CQUAD4   301     1       432     468     472     436     0.      0.
CQUAD4   302     1       468     469     473     472     0.      0.
CQUAD4   303     1       469     470     474     473     0.      0.
CQUAD4   304     1       361     447     483     486     0.      0.
CQUAD4   305     1       447     448     480     483     0.      0.
CQUAD4   306     1       448     449     481     480     0.      0.
CQUAD4   307     1       449     92      134     481     0.      0.
CQUAD4   308     1       480     481     484     483     0.      0.
CQUAD4   309     1       481     134     135     484     0.      0.
CQUAD4   310     1       483     484     487     486     0.      0.
CQUAD4   311     1       484     135     136     487     0.      0.
CQUAD4   312     1       92      134     494     458     0.      0.
CQUAD4   313     1       134     135     495     494     0.      0.
CQUAD4   314     1       135     136     496     495     0.      0.
CQUAD4   315     1       458     494     498     462     0.      0.
CQUAD4   316     1       494     495     499     498     0.      0.
CQUAD4   317     1       495     496     500     499     0.      0.
CQUAD4   318     1       462     498     502     466     0.      0.
CQUAD4   319     1       498     499     503     502     0.      0.
CQUAD4   320     1       499     500     504     503     0.      0.
CQUAD4   321     1       466     502     506     470     0.      0.
CQUAD4   322     1       502     503     507     506     0.      0.
CQUAD4   323     1       503     504     508     507     0.      0.
CQUAD4   324     1       470     506     510     474     0.      0.
CQUAD4   325     1       506     507     511     510     0.      0.
CQUAD4   326     1       507     508     512     511     0.      0.
CQUAD4   327     1       486     487     518     519     0.      0.
CQUAD4   328     1       487     136     178     518     0.      0.
CQUAD4   329     1       519     518     521     522     0.      0.
CQUAD4   330     1       518     178     179     521     0.      0.
CQUAD4   331     1       486     519     523     361     0.      0.
CQUAD4   332     1       519     522     524     523     0.      0.
CQUAD4   333     1       522     521     525     524     0.      0.
CQUAD4   334     1       521     179     180     525     0.      0.
CQUAD4   335     1       136     178     532     496     0.      0.
CQUAD4   336     1       178     179     533     532     0.      0.
CQUAD4   337     1       179     180     534     533     0.      0.
CQUAD4   338     1       496     532     536     500     0.      0.
CQUAD4   339     1       532     533     537     536     0.      0.
CQUAD4   340     1       533     534     538     537     0.      0.
CQUAD4   341     1       500     536     540     504     0.      0.
CQUAD4   342     1       536     537     541     540     0.      0.
CQUAD4   343     1       537     538     542     541     0.      0.
CQUAD4   344     1       504     540     544     508     0.      0.
CQUAD4   345     1       540     541     545     544     0.      0.
CQUAD4   346     1       541     542     546     545     0.      0.
CQUAD4   347     1       508     544     548     512     0.      0.
CQUAD4   348     1       544     545     549     548     0.      0.
CQUAD4   349     1       545     546     550     549     0.      0.
CQUAD4   350     1       361     523     559     362     0.      0.
CQUAD4   351     1       523     524     556     559     0.      0.
CQUAD4   352     1       524     525     557     556     0.      0.
CQUAD4   353     1       525     180     222     557     0.      0.
CQUAD4   354     1       556     557     560     559     0.      0.
CQUAD4   355     1       557     222     223     560     0.      0.
CQUAD4   356     1       559     560     363     362     0.      0.
CQUAD4   357     1       560     223     1       363     0.      0.
CQUAD4   358     1       180     222     570     534     0.      0.
CQUAD4   359     1       222     223     571     570     0.      0.
CQUAD4   360     1       223     1       379     571     0.      0.
CQUAD4   361     1       534     570     574     538     0.      0.
CQUAD4   362     1       570     571     575     574     0.      0.
CQUAD4   363     1       571     379     383     575     0.      0.
CQUAD4   364     1       538     574     578     542     0.      0.
CQUAD4   365     1       574     575     579     578     0.      0.
CQUAD4   366     1       575     383     387     579     0.      0.
CQUAD4   367     1       542     578     582     546     0.      0.
CQUAD4   368     1       578     579     583     582     0.      0.
CQUAD4   369     1       579     387     391     583     0.      0.
CQUAD4   370     1       546     582     586     550     0.      0.
CQUAD4   371     1       582     583     587     586     0.      0.
CQUAD4   372     1       583     391     395     587     0.      0.
CQUAD4   673     1       1071    1072    1122    1069    0.      0.
CQUAD4   674     1       719     1073    992     720     0.      0.
CQUAD4   675     1       718     1074    1073    719     0.      0.
CQUAD4   676     1       717     1075    1074    718     0.      0.
CQUAD4   677     1       716     1076    1075    717     0.      0.
CQUAD4   678     1       43      1076    716     44      0.      0.
CQUAD4   679     1       987     1077    653     654     0.      0.
CQUAD4   680     1       988     1139    1077    987     0.      0.
CQUAD4   681     1       989     1078    1139    988     0.      0.
CQUAD4   682     1       990     1079    1078    989     0.      0.
CQUAD4   683     1       991     1080    1079    990     0.      0.
CQUAD4   684     1       1073    1080    991     992     0.      0.
CQUAD4   685     1       785     1081    999     786     0.      0.
CQUAD4   686     1       784     1082    1081    785     0.      0.
CQUAD4   687     1       783     1083    1082    784     0.      0.
CQUAD4   688     1       782     1084    1083    783     0.      0.
CQUAD4   689     1       87      1084    782     88      0.      0.
CQUAD4   690     1       994     1085    719     720     0.      0.
CQUAD4   691     1       995     1144    1085    994     0.      0.
CQUAD4   692     1       996     1086    1144    995     0.      0.
CQUAD4   693     1       997     1087    1086    996     0.      0.
CQUAD4   694     1       998     1088    1087    997     0.      0.
CQUAD4   695     1       1081    1088    998     999     0.      0.
CQUAD4   696     1       851     1089    1006    852     0.      0.
CQUAD4   697     1       850     1090    1089    851     0.      0.
CQUAD4   698     1       849     1091    1090    850     0.      0.
CQUAD4   699     1       848     1092    1091    849     0.      0.
CQUAD4   700     1       131     1092    848     132     0.      0.
CQUAD4   701     1       1001    1093    785     786     0.      0.
CQUAD4   702     1       1002    1149    1093    1001    0.      0.
CQUAD4   703     1       1003    1094    1149    1002    0.      0.
CQUAD4   704     1       1004    1095    1094    1003    0.      0.
CQUAD4   705     1       1005    1096    1095    1004    0.      0.
CQUAD4   706     1       1089    1096    1005    1006    0.      0.
CQUAD4   707     1       917     1097    1013    918     0.      0.
CQUAD4   708     1       916     1098    1097    917     0.      0.
CQUAD4   709     1       915     1099    1098    916     0.      0.
CQUAD4   710     1       914     1100    1099    915     0.      0.
CQUAD4   711     1       175     1100    914     176     0.      0.
CQUAD4   712     1       1008    1101    851     852     0.      0.
CQUAD4   713     1       1009    1154    1101    1008    0.      0.
CQUAD4   714     1       1010    1102    1154    1009    0.      0.
CQUAD4   715     1       1011    1103    1102    1010    0.      0.
CQUAD4   716     1       1012    1104    1103    1011    0.      0.
CQUAD4   717     1       1097    1104    1012    1013    0.      0.
CQUAD4   718     1       983     1105    1020    984     0.      0.
CQUAD4   719     1       982     1106    1105    983     0.      0.
CQUAD4   720     1       981     1107    1106    982     0.      0.
CQUAD4   721     1       980     1108    1107    981     0.      0.
CQUAD4   722     1       219     1108    980     220     0.      0.
CQUAD4   723     1       1015    1109    917     918     0.      0.
CQUAD4   724     1       1016    1110    1109    1015    0.      0.
CQUAD4   725     1       1017    1111    1110    1016    0.      0.
CQUAD4   726     1       1018    1112    1111    1017    0.      0.
CQUAD4   727     1       1019    1113    1112    1018    0.      0.
CQUAD4   728     1       1105    1113    1019    1020    0.      0.
CQUAD4   729     1       653     1114    1026    654     0.      0.
CQUAD4   730     1       652     1115    1114    653     0.      0.
CQUAD4   731     1       651     1116    1115    652     0.      0.
CQUAD4   732     1       650     1117    1116    651     0.      0.
CQUAD4   733     1       263     1117    650     41      0.      0.
CQUAD4   734     1       1021    1118    983     984     0.      0.
CQUAD4   735     1       1022    1163    1118    1021    0.      0.
CQUAD4   736     1       1023    1119    1163    1022    0.      0.
CQUAD4   737     1       1024    1120    1119    1023    0.      0.
CQUAD4   738     1       1025    1121    1120    1024    0.      0.
CQUAD4   739     1       1114    1121    1025    1026    0.      0.
CQUAD4   740     1       262     1122    1072    220     0.      0.
CQUAD4   741     1       263     1123    1122    262     0.      0.
CQUAD4   742     1       41      1124    1123    263     0.      0.
CQUAD4   743     1       42      1125    1124    41      0.      0.
CQUAD4   744     1       43      1166    1125    42      0.      0.
CQUAD4   745     1       44      1126    1166    43      0.      0.
CQUAD4   746     1       86      87      1126    44      0.      0.
CQUAD4   747     1       88      1127    1126    87      0.      0.
CQUAD4   748     1       130     1128    1127    88      0.      0.
CQUAD4   749     1       131     1130    1128    130     0.      0.
CQUAD4   750     1       132     1129    1130    131     0.      0.
CQUAD4   751     1       174     1167    1129    132     0.      0.
CQUAD4   752     1       175     1131    1167    174     0.      0.
CQUAD4   753     1       176     1132    1131    175     0.      0.
CQUAD4   754     1       218     1133    1132    176     0.      0.
CQUAD4   755     1       220     1072    1168    219     0.      0.
CQUAD4   756     1       1168    1133    218     219     0.      0.
CQUAD4   757     1       1071    1134    1132    1133    0.      0.
CQUAD4   758     1       1069    1135    1134    1071    0.      0.
CQUAD4   759     1       1134    1130    1131    1132    0.      0.
CQUAD4   760     1       1070    1136    1135    1069    0.      0.
CQUAD4   761     1       1128    1135    1136    1127    0.      0.
CQUAD4   762     1       1126    1127    1136    1166    0.      0.
CQUAD4   763     1       1070    1123    1124    1125    0.      0.
CQUAD4   764     1       1070    1069    1122    1123    0.      0.
CQUAD4   765     1       42      1137    1076    43      0.      0.
CQUAD4   766     1       650     1137    42      41      0.      0.
CQUAD4   767     1       651     1138    1137    650     0.      0.
CQUAD4   768     1       652     1139    1138    651     0.      0.
CQUAD4   769     1       1077    1139    652     653     0.      0.
CQUAD4   770     1       1078    1140    1138    1139    0.      0.
CQUAD4   771     1       1079    1141    1140    1078    0.      0.
CQUAD4   772     1       1137    1141    1075    1076    0.      0.
CQUAD4   773     1       1137    1138    1140    1141    0.      0.
CQUAD4   774     1       1075    1080    1073    1074    0.      0.
CQUAD4   775     1       1075    1141    1079    1080    0.      0.
CQUAD4   776     1       86      1142    1084    87      0.      0.
CQUAD4   777     1       716     1142    86      44      0.      0.
CQUAD4   778     1       717     1143    1142    716     0.      0.
CQUAD4   779     1       718     1144    1143    717     0.      0.
CQUAD4   780     1       1085    1144    718     719     0.      0.
CQUAD4   781     1       1086    1145    1143    1144    0.      0.
CQUAD4   782     1       1087    1146    1145    1086    0.      0.
CQUAD4   783     1       1142    1146    1083    1084    0.      0.
CQUAD4   784     1       1142    1143    1145    1146    0.      0.
CQUAD4   785     1       1083    1088    1081    1082    0.      0.
CQUAD4   786     1       1083    1146    1087    1088    0.      0.
CQUAD4   787     1       130     1147    1092    131     0.      0.
CQUAD4   788     1       782     1147    130     88      0.      0.
CQUAD4   789     1       783     1148    1147    782     0.      0.
CQUAD4   790     1       784     1149    1148    783     0.      0.
CQUAD4   791     1       1093    1149    784     785     0.      0.
CQUAD4   792     1       1094    1150    1148    1149    0.      0.
CQUAD4   793     1       1095    1151    1150    1094    0.      0.
CQUAD4   794     1       1147    1151    1091    1092    0.      0.
CQUAD4   795     1       1147    1148    1150    1151    0.      0.
CQUAD4   796     1       1091    1096    1089    1090    0.      0.
CQUAD4   797     1       1091    1151    1095    1096    0.      0.
CQUAD4   798     1       174     1152    1100    175     0.      0.
CQUAD4   799     1       848     1152    174     132     0.      0.
CQUAD4   800     1       849     1153    1152    848     0.      0.
CQUAD4   801     1       850     1154    1153    849     0.      0.
CQUAD4   802     1       1101    1154    850     851     0.      0.
CQUAD4   803     1       1102    1155    1153    1154    0.      0.
CQUAD4   804     1       1103    1156    1155    1102    0.      0.
CQUAD4   805     1       1152    1156    1099    1100    0.      0.
CQUAD4   806     1       1152    1153    1155    1156    0.      0.
CQUAD4   807     1       1099    1104    1097    1098    0.      0.
CQUAD4   808     1       1099    1156    1103    1104    0.      0.
CQUAD4   809     1       218     1157    1108    219     0.      0.
CQUAD4   810     1       914     1157    218     176     0.      0.
CQUAD4   811     1       915     1158    1157    914     0.      0.
CQUAD4   812     1       1111    1159    1158    1110    0.      0.
CQUAD4   813     1       1112    1160    1159    1111    0.      0.
CQUAD4   814     1       1157    1160    1107    1108    0.      0.
CQUAD4   815     1       1157    1158    1159    1160    0.      0.
CQUAD4   816     1       917     1109    1110    916     0.      0.
CQUAD4   817     1       916     1110    1158    915     0.      0.
CQUAD4   818     1       1107    1113    1105    1106    0.      0.
CQUAD4   819     1       1107    1160    1112    1113    0.      0.
CQUAD4   820     1       262     1161    1117    263     0.      0.
CQUAD4   821     1       980     1161    262     220     0.      0.
CQUAD4   822     1       981     1162    1161    980     0.      0.
CQUAD4   823     1       982     1163    1162    981     0.      0.
CQUAD4   824     1       1118    1163    982     983     0.      0.
CQUAD4   825     1       1119    1164    1162    1163    0.      0.
CQUAD4   826     1       1120    1165    1164    1119    0.      0.
CQUAD4   827     1       1161    1165    1116    1117    0.      0.
CQUAD4   828     1       1161    1162    1164    1165    0.      0.
CQUAD4   829     1       1116    1121    1114    1115    0.      0.
CQUAD4   830     1       1116    1165    1120    1121    0.      0.
CQUAD4   831     1       1070    1125    1166    1136    0.      0.
CQUAD4   832     1       1130    1129    1167    1131    0.      0.
CQUAD4   833     1       1130    1134    1135    1128    0.      0.
CQUAD4   834     1       1071    1133    1168    1072    0.      0.
$ Elements and Element Properties for region : shear_panel
PSHELL   2       1      .075     1               1
$ Pset: "shear_panel" will be imported as: "pshell.2"
CQUAD4   373     2       1       379     596     5       0.      0.
CQUAD4   374     2       379     383     597     596     0.      0.
CQUAD4   375     2       383     387     598     597     0.      0.
CQUAD4   376     2       387     391     599     598     0.      0.
CQUAD4   377     2       391     395     600     599     0.      0.
CQUAD4   378     2       5       596     602     9       0.      0.
CQUAD4   379     2       596     597     603     602     0.      0.
CQUAD4   380     2       597     598     604     603     0.      0.
CQUAD4   381     2       598     599     605     604     0.      0.
CQUAD4   382     2       599     600     606     605     0.      0.
CQUAD4   383     2       9       602     608     13      0.      0.
CQUAD4   384     2       602     603     609     608     0.      0.
CQUAD4   385     2       603     604     610     609     0.      0.
CQUAD4   386     2       604     605     611     610     0.      0.
CQUAD4   387     2       605     606     612     611     0.      0.
CQUAD4   388     2       13      608     614     17      0.      0.
CQUAD4   389     2       608     609     615     614     0.      0.
CQUAD4   390     2       609     610     616     615     0.      0.
CQUAD4   391     2       610     611     617     616     0.      0.
CQUAD4   392     2       611     612     618     617     0.      0.
CQUAD4   393     2       17      614     620     21      0.      0.
CQUAD4   394     2       614     615     621     620     0.      0.
CQUAD4   395     2       615     616     622     621     0.      0.
CQUAD4   396     2       616     617     623     622     0.      0.
CQUAD4   397     2       617     618     624     623     0.      0.
CQUAD4   398     2       21      620     626     25      0.      0.
CQUAD4   399     2       620     621     627     626     0.      0.
CQUAD4   400     2       621     622     628     627     0.      0.
CQUAD4   401     2       622     623     629     628     0.      0.
CQUAD4   402     2       623     624     630     629     0.      0.
CQUAD4   403     2       25      626     632     29      0.      0.
CQUAD4   404     2       626     627     633     632     0.      0.
CQUAD4   405     2       627     628     634     633     0.      0.
CQUAD4   406     2       628     629     635     634     0.      0.
CQUAD4   407     2       629     630     636     635     0.      0.
CQUAD4   408     2       29      632     638     33      0.      0.
CQUAD4   409     2       632     633     639     638     0.      0.
CQUAD4   410     2       633     634     640     639     0.      0.
CQUAD4   411     2       634     635     641     640     0.      0.
CQUAD4   412     2       635     636     642     641     0.      0.
CQUAD4   413     2       33      638     644     37      0.      0.
CQUAD4   414     2       638     639     645     644     0.      0.
CQUAD4   415     2       639     640     646     645     0.      0.
CQUAD4   416     2       640     641     647     646     0.      0.
CQUAD4   417     2       641     642     648     647     0.      0.
CQUAD4   418     2       37      644     650     41      0.      0.
CQUAD4   419     2       644     645     651     650     0.      0.
CQUAD4   420     2       645     646     652     651     0.      0.
CQUAD4   421     2       646     647     653     652     0.      0.
CQUAD4   422     2       647     648     654     653     0.      0.
CQUAD4   423     2       4       382     662     8       0.      0.
CQUAD4   424     2       382     386     663     662     0.      0.
CQUAD4   425     2       386     390     664     663     0.      0.
CQUAD4   426     2       390     394     665     664     0.      0.
CQUAD4   427     2       394     398     666     665     0.      0.
CQUAD4   428     2       8       662     668     12      0.      0.
CQUAD4   429     2       662     663     669     668     0.      0.
CQUAD4   430     2       663     664     670     669     0.      0.
CQUAD4   431     2       664     665     671     670     0.      0.
CQUAD4   432     2       665     666     672     671     0.      0.
CQUAD4   433     2       12      668     674     16      0.      0.
CQUAD4   434     2       668     669     675     674     0.      0.
CQUAD4   435     2       669     670     676     675     0.      0.
CQUAD4   436     2       670     671     677     676     0.      0.
CQUAD4   437     2       671     672     678     677     0.      0.
CQUAD4   438     2       16      674     680     20      0.      0.
CQUAD4   439     2       674     675     681     680     0.      0.
CQUAD4   440     2       675     676     682     681     0.      0.
CQUAD4   441     2       676     677     683     682     0.      0.
CQUAD4   442     2       677     678     684     683     0.      0.
CQUAD4   443     2       20      680     686     24      0.      0.
CQUAD4   444     2       680     681     687     686     0.      0.
CQUAD4   445     2       681     682     688     687     0.      0.
CQUAD4   446     2       682     683     689     688     0.      0.
CQUAD4   447     2       683     684     690     689     0.      0.
CQUAD4   448     2       24      686     692     28      0.      0.
CQUAD4   449     2       686     687     693     692     0.      0.
CQUAD4   450     2       687     688     694     693     0.      0.
CQUAD4   451     2       688     689     695     694     0.      0.
CQUAD4   452     2       689     690     696     695     0.      0.
CQUAD4   453     2       28      692     698     32      0.      0.
CQUAD4   454     2       692     693     699     698     0.      0.
CQUAD4   455     2       693     694     700     699     0.      0.
CQUAD4   456     2       694     695     701     700     0.      0.
CQUAD4   457     2       695     696     702     701     0.      0.
CQUAD4   458     2       32      698     704     36      0.      0.
CQUAD4   459     2       698     699     705     704     0.      0.
CQUAD4   460     2       699     700     706     705     0.      0.
CQUAD4   461     2       700     701     707     706     0.      0.
CQUAD4   462     2       701     702     708     707     0.      0.
CQUAD4   463     2       36      704     710     40      0.      0.
CQUAD4   464     2       704     705     711     710     0.      0.
CQUAD4   465     2       705     706     712     711     0.      0.
CQUAD4   466     2       706     707     713     712     0.      0.
CQUAD4   467     2       707     708     714     713     0.      0.
CQUAD4   468     2       40      710     716     44      0.      0.
CQUAD4   469     2       710     711     717     716     0.      0.
CQUAD4   470     2       711     712     718     717     0.      0.
CQUAD4   471     2       712     713     719     718     0.      0.
CQUAD4   472     2       713     714     720     719     0.      0.
CQUAD4   473     2       48      420     728     52      0.      0.
CQUAD4   474     2       420     424     729     728     0.      0.
CQUAD4   475     2       424     428     730     729     0.      0.
CQUAD4   476     2       428     432     731     730     0.      0.
CQUAD4   477     2       432     436     732     731     0.      0.
CQUAD4   478     2       52      728     734     56      0.      0.
CQUAD4   479     2       728     729     735     734     0.      0.
CQUAD4   480     2       729     730     736     735     0.      0.
CQUAD4   481     2       730     731     737     736     0.      0.
CQUAD4   482     2       731     732     738     737     0.      0.
CQUAD4   483     2       56      734     740     60      0.      0.
CQUAD4   484     2       734     735     741     740     0.      0.
CQUAD4   485     2       735     736     742     741     0.      0.
CQUAD4   486     2       736     737     743     742     0.      0.
CQUAD4   487     2       737     738     744     743     0.      0.
CQUAD4   488     2       60      740     746     64      0.      0.
CQUAD4   489     2       740     741     747     746     0.      0.
CQUAD4   490     2       741     742     748     747     0.      0.
CQUAD4   491     2       742     743     749     748     0.      0.
CQUAD4   492     2       743     744     750     749     0.      0.
CQUAD4   493     2       64      746     752     68      0.      0.
CQUAD4   494     2       746     747     753     752     0.      0.
CQUAD4   495     2       747     748     754     753     0.      0.
CQUAD4   496     2       748     749     755     754     0.      0.
CQUAD4   497     2       749     750     756     755     0.      0.
CQUAD4   498     2       68      752     758     72      0.      0.
CQUAD4   499     2       752     753     759     758     0.      0.
CQUAD4   500     2       753     754     760     759     0.      0.
CQUAD4   501     2       754     755     761     760     0.      0.
CQUAD4   502     2       755     756     762     761     0.      0.
CQUAD4   503     2       72      758     764     76      0.      0.
CQUAD4   504     2       758     759     765     764     0.      0.
CQUAD4   505     2       759     760     766     765     0.      0.
CQUAD4   506     2       760     761     767     766     0.      0.
CQUAD4   507     2       761     762     768     767     0.      0.
CQUAD4   508     2       76      764     770     80      0.      0.
CQUAD4   509     2       764     765     771     770     0.      0.
CQUAD4   510     2       765     766     772     771     0.      0.
CQUAD4   511     2       766     767     773     772     0.      0.
CQUAD4   512     2       767     768     774     773     0.      0.
CQUAD4   513     2       80      770     776     84      0.      0.
CQUAD4   514     2       770     771     777     776     0.      0.
CQUAD4   515     2       771     772     778     777     0.      0.
CQUAD4   516     2       772     773     779     778     0.      0.
CQUAD4   517     2       773     774     780     779     0.      0.
CQUAD4   518     2       84      776     782     88      0.      0.
CQUAD4   519     2       776     777     783     782     0.      0.
CQUAD4   520     2       777     778     784     783     0.      0.
CQUAD4   521     2       778     779     785     784     0.      0.
CQUAD4   522     2       779     780     786     785     0.      0.
CQUAD4   523     2       92      458     794     96      0.      0.
CQUAD4   524     2       458     462     795     794     0.      0.
CQUAD4   525     2       462     466     796     795     0.      0.
CQUAD4   526     2       466     470     797     796     0.      0.
CQUAD4   527     2       470     474     798     797     0.      0.
CQUAD4   528     2       96      794     800     100     0.      0.
CQUAD4   529     2       794     795     801     800     0.      0.
CQUAD4   530     2       795     796     802     801     0.      0.
CQUAD4   531     2       796     797     803     802     0.      0.
CQUAD4   532     2       797     798     804     803     0.      0.
CQUAD4   533     2       100     800     806     104     0.      0.
CQUAD4   534     2       800     801     807     806     0.      0.
CQUAD4   535     2       801     802     808     807     0.      0.
CQUAD4   536     2       802     803     809     808     0.      0.
CQUAD4   537     2       803     804     810     809     0.      0.
CQUAD4   538     2       104     806     812     108     0.      0.
CQUAD4   539     2       806     807     813     812     0.      0.
CQUAD4   540     2       807     808     814     813     0.      0.
CQUAD4   541     2       808     809     815     814     0.      0.
CQUAD4   542     2       809     810     816     815     0.      0.
CQUAD4   543     2       108     812     818     112     0.      0.
CQUAD4   544     2       812     813     819     818     0.      0.
CQUAD4   545     2       813     814     820     819     0.      0.
CQUAD4   546     2       814     815     821     820     0.      0.
CQUAD4   547     2       815     816     822     821     0.      0.
CQUAD4   548     2       112     818     824     116     0.      0.
CQUAD4   549     2       818     819     825     824     0.      0.
CQUAD4   550     2       819     820     826     825     0.      0.
CQUAD4   551     2       820     821     827     826     0.      0.
CQUAD4   552     2       821     822     828     827     0.      0.
CQUAD4   553     2       116     824     830     120     0.      0.
CQUAD4   554     2       824     825     831     830     0.      0.
CQUAD4   555     2       825     826     832     831     0.      0.
CQUAD4   556     2       826     827     833     832     0.      0.
CQUAD4   557     2       827     828     834     833     0.      0.
CQUAD4   558     2       120     830     836     124     0.      0.
CQUAD4   559     2       830     831     837     836     0.      0.
CQUAD4   560     2       831     832     838     837     0.      0.
CQUAD4   561     2       832     833     839     838     0.      0.
CQUAD4   562     2       833     834     840     839     0.      0.
CQUAD4   563     2       124     836     842     128     0.      0.
CQUAD4   564     2       836     837     843     842     0.      0.
CQUAD4   565     2       837     838     844     843     0.      0.
CQUAD4   566     2       838     839     845     844     0.      0.
CQUAD4   567     2       839     840     846     845     0.      0.
CQUAD4   568     2       128     842     848     132     0.      0.
CQUAD4   569     2       842     843     849     848     0.      0.
CQUAD4   570     2       843     844     850     849     0.      0.
CQUAD4   571     2       844     845     851     850     0.      0.
CQUAD4   572     2       845     846     852     851     0.      0.
CQUAD4   573     2       136     496     860     140     0.      0.
CQUAD4   574     2       496     500     861     860     0.      0.
CQUAD4   575     2       500     504     862     861     0.      0.
CQUAD4   576     2       504     508     863     862     0.      0.
CQUAD4   577     2       508     512     864     863     0.      0.
CQUAD4   578     2       140     860     866     144     0.      0.
CQUAD4   579     2       860     861     867     866     0.      0.
CQUAD4   580     2       861     862     868     867     0.      0.
CQUAD4   581     2       862     863     869     868     0.      0.
CQUAD4   582     2       863     864     870     869     0.      0.
CQUAD4   583     2       144     866     872     148     0.      0.
CQUAD4   584     2       866     867     873     872     0.      0.
CQUAD4   585     2       867     868     874     873     0.      0.
CQUAD4   586     2       868     869     875     874     0.      0.
CQUAD4   587     2       869     870     876     875     0.      0.
CQUAD4   588     2       148     872     878     152     0.      0.
CQUAD4   589     2       872     873     879     878     0.      0.
CQUAD4   590     2       873     874     880     879     0.      0.
CQUAD4   591     2       874     875     881     880     0.      0.
CQUAD4   592     2       875     876     882     881     0.      0.
CQUAD4   593     2       152     878     884     156     0.      0.
CQUAD4   594     2       878     879     885     884     0.      0.
CQUAD4   595     2       879     880     886     885     0.      0.
CQUAD4   596     2       880     881     887     886     0.      0.
CQUAD4   597     2       881     882     888     887     0.      0.
CQUAD4   598     2       156     884     890     160     0.      0.
CQUAD4   599     2       884     885     891     890     0.      0.
CQUAD4   600     2       885     886     892     891     0.      0.
CQUAD4   601     2       886     887     893     892     0.      0.
CQUAD4   602     2       887     888     894     893     0.      0.
CQUAD4   603     2       160     890     896     164     0.      0.
CQUAD4   604     2       890     891     897     896     0.      0.
CQUAD4   605     2       891     892     898     897     0.      0.
CQUAD4   606     2       892     893     899     898     0.      0.
CQUAD4   607     2       893     894     900     899     0.      0.
CQUAD4   608     2       164     896     902     168     0.      0.
CQUAD4   609     2       896     897     903     902     0.      0.
CQUAD4   610     2       897     898     904     903     0.      0.
CQUAD4   611     2       898     899     905     904     0.      0.
CQUAD4   612     2       899     900     906     905     0.      0.
CQUAD4   613     2       168     902     908     172     0.      0.
CQUAD4   614     2       902     903     909     908     0.      0.
CQUAD4   615     2       903     904     910     909     0.      0.
CQUAD4   616     2       904     905     911     910     0.      0.
CQUAD4   617     2       905     906     912     911     0.      0.
CQUAD4   618     2       172     908     914     176     0.      0.
CQUAD4   619     2       908     909     915     914     0.      0.
CQUAD4   620     2       909     910     916     915     0.      0.
CQUAD4   621     2       910     911     917     916     0.      0.
CQUAD4   622     2       911     912     918     917     0.      0.
CQUAD4   623     2       180     534     926     184     0.      0.
CQUAD4   624     2       534     538     927     926     0.      0.
CQUAD4   625     2       538     542     928     927     0.      0.
CQUAD4   626     2       542     546     929     928     0.      0.
CQUAD4   627     2       546     550     930     929     0.      0.
CQUAD4   628     2       184     926     932     188     0.      0.
CQUAD4   629     2       926     927     933     932     0.      0.
CQUAD4   630     2       927     928     934     933     0.      0.
CQUAD4   631     2       928     929     935     934     0.      0.
CQUAD4   632     2       929     930     936     935     0.      0.
CQUAD4   633     2       188     932     938     192     0.      0.
CQUAD4   634     2       932     933     939     938     0.      0.
CQUAD4   635     2       933     934     940     939     0.      0.
CQUAD4   636     2       934     935     941     940     0.      0.
CQUAD4   637     2       935     936     942     941     0.      0.
CQUAD4   638     2       192     938     944     196     0.      0.
CQUAD4   639     2       938     939     945     944     0.      0.
CQUAD4   640     2       939     940     946     945     0.      0.
CQUAD4   641     2       940     941     947     946     0.      0.
CQUAD4   642     2       941     942     948     947     0.      0.
CQUAD4   643     2       196     944     950     200     0.      0.
CQUAD4   644     2       944     945     951     950     0.      0.
CQUAD4   645     2       945     946     952     951     0.      0.
CQUAD4   646     2       946     947     953     952     0.      0.
CQUAD4   647     2       947     948     954     953     0.      0.
CQUAD4   648     2       200     950     956     204     0.      0.
CQUAD4   649     2       950     951     957     956     0.      0.
CQUAD4   650     2       951     952     958     957     0.      0.
CQUAD4   651     2       952     953     959     958     0.      0.
CQUAD4   652     2       953     954     960     959     0.      0.
CQUAD4   653     2       204     956     962     208     0.      0.
CQUAD4   654     2       956     957     963     962     0.      0.
CQUAD4   655     2       957     958     964     963     0.      0.
CQUAD4   656     2       958     959     965     964     0.      0.
CQUAD4   657     2       959     960     966     965     0.      0.
CQUAD4   658     2       208     962     968     212     0.      0.
CQUAD4   659     2       962     963     969     968     0.      0.
CQUAD4   660     2       963     964     970     969     0.      0.
CQUAD4   661     2       964     965     971     970     0.      0.
CQUAD4   662     2       965     966     972     971     0.      0.
CQUAD4   663     2       212     968     974     216     0.      0.
CQUAD4   664     2       968     969     975     974     0.      0.
CQUAD4   665     2       969     970     976     975     0.      0.
CQUAD4   666     2       970     971     977     976     0.      0.
CQUAD4   667     2       971     972     978     977     0.      0.
CQUAD4   668     2       216     974     980     220     0.      0.
CQUAD4   669     2       974     975     981     980     0.      0.
CQUAD4   670     2       975     976     982     981     0.      0.
CQUAD4   671     2       976     977     983     982     0.      0.
CQUAD4   672     2       977     978     984     983     0.      0.
$ Elements and Element Properties for region : adapter
PSHELL   3       2      .075     2               2
$ Pset: "adapter" will be imported as: "pshell.3"
CQUAD4   181     3       1       266     270     2       0.      0.
CQUAD4   182     3       266     267     271     270     0.      0.
CQUAD4   183     3       267     268     272     271     0.      0.
CQUAD4   184     3       2       270     274     3       0.      0.
CQUAD4   185     3       270     271     275     274     0.      0.
CQUAD4   186     3       271     272     276     275     0.      0.
CQUAD4   187     3       3       274     278     4       0.      0.
CQUAD4   188     3       274     275     279     278     0.      0.
CQUAD4   189     3       275     276     280     279     0.      0.
CQUAD4   190     3       4       278     286     46      0.      0.
CQUAD4   191     3       278     279     287     286     0.      0.
CQUAD4   192     3       279     280     288     287     0.      0.
CQUAD4   193     3       46      286     290     47      0.      0.
CQUAD4   194     3       286     287     291     290     0.      0.
CQUAD4   195     3       287     288     292     291     0.      0.
CQUAD4   196     3       47      290     294     48      0.      0.
CQUAD4   197     3       290     291     295     294     0.      0.
CQUAD4   198     3       291     292     296     295     0.      0.
CQUAD4   199     3       48      294     302     90      0.      0.
CQUAD4   200     3       294     295     303     302     0.      0.
CQUAD4   201     3       295     296     304     303     0.      0.
CQUAD4   202     3       90      302     306     91      0.      0.
CQUAD4   203     3       302     303     307     306     0.      0.
CQUAD4   204     3       303     304     308     307     0.      0.
CQUAD4   205     3       91      306     310     92      0.      0.
CQUAD4   206     3       306     307     311     310     0.      0.
CQUAD4   207     3       307     308     312     311     0.      0.
CQUAD4   208     3       92      310     318     134     0.      0.
CQUAD4   209     3       310     311     319     318     0.      0.
CQUAD4   210     3       311     312     320     319     0.      0.
CQUAD4   211     3       134     318     322     135     0.      0.
CQUAD4   212     3       318     319     323     322     0.      0.
CQUAD4   213     3       319     320     324     323     0.      0.
CQUAD4   214     3       135     322     326     136     0.      0.
CQUAD4   215     3       322     323     327     326     0.      0.
CQUAD4   216     3       323     324     328     327     0.      0.
CQUAD4   217     3       136     326     334     178     0.      0.
CQUAD4   218     3       326     327     335     334     0.      0.
CQUAD4   219     3       327     328     336     335     0.      0.
CQUAD4   220     3       178     334     338     179     0.      0.
CQUAD4   221     3       334     335     339     338     0.      0.
CQUAD4   222     3       335     336     340     339     0.      0.
CQUAD4   223     3       179     338     342     180     0.      0.
CQUAD4   224     3       338     339     343     342     0.      0.
CQUAD4   225     3       339     340     344     343     0.      0.
CQUAD4   226     3       180     342     350     222     0.      0.
CQUAD4   227     3       342     343     351     350     0.      0.
CQUAD4   228     3       343     344     352     351     0.      0.
CQUAD4   229     3       222     350     354     223     0.      0.
CQUAD4   230     3       350     351     355     354     0.      0.
CQUAD4   231     3       351     352     356     355     0.      0.
CQUAD4   232     3       223     354     266     1       0.      0.
CQUAD4   233     3       354     355     267     266     0.      0.
CQUAD4   234     3       355     356     268     267     0.      0.
$ Elements and Element Properties for region : cylinder
PSHELL   4       2      .25      2               2
$ Pset: "cylinder" will be imported as: "pshell.4"
CQUAD4   1       4       1       2       6       5       0.      0.
CQUAD4   2       4       2       3       7       6       0.      0.
CQUAD4   3       4       3       4       8       7       0.      0.
CQUAD4   4       4       5       6       10      9       0.      0.
CQUAD4   5       4       6       7       11      10      0.      0.
CQUAD4   6       4       7       8       12      11      0.      0.
CQUAD4   7       4       9       10      14      13      0.      0.
CQUAD4   8       4       10      11      15      14      0.      0.
CQUAD4   9       4       11      12      16      15      0.      0.
CQUAD4   10      4       13      14      18      17      0.      0.
CQUAD4   11      4       14      15      19      18      0.      0.
CQUAD4   12      4       15      16      20      19      0.      0.
CQUAD4   13      4       17      18      22      21      0.      0.
CQUAD4   14      4       18      19      23      22      0.      0.
CQUAD4   15      4       19      20      24      23      0.      0.
CQUAD4   16      4       21      22      26      25      0.      0.
CQUAD4   17      4       22      23      27      26      0.      0.
CQUAD4   18      4       23      24      28      27      0.      0.
CQUAD4   19      4       25      26      30      29      0.      0.
CQUAD4   20      4       26      27      31      30      0.      0.
CQUAD4   21      4       27      28      32      31      0.      0.
CQUAD4   22      4       29      30      34      33      0.      0.
CQUAD4   23      4       30      31      35      34      0.      0.
CQUAD4   24      4       31      32      36      35      0.      0.
CQUAD4   25      4       33      34      38      37      0.      0.
CQUAD4   26      4       34      35      39      38      0.      0.
CQUAD4   27      4       35      36      40      39      0.      0.
CQUAD4   28      4       37      38      42      41      0.      0.
CQUAD4   29      4       38      39      43      42      0.      0.
CQUAD4   30      4       39      40      44      43      0.      0.
CQUAD4   31      4       4       46      50      8       0.      0.
CQUAD4   32      4       46      47      51      50      0.      0.
CQUAD4   33      4       47      48      52      51      0.      0.
CQUAD4   34      4       8       50      54      12      0.      0.
CQUAD4   35      4       50      51      55      54      0.      0.
CQUAD4   36      4       51      52      56      55      0.      0.
CQUAD4   37      4       12      54      58      16      0.      0.
CQUAD4   38      4       54      55      59      58      0.      0.
CQUAD4   39      4       55      56      60      59      0.      0.
CQUAD4   40      4       16      58      62      20      0.      0.
CQUAD4   41      4       58      59      63      62      0.      0.
CQUAD4   42      4       59      60      64      63      0.      0.
CQUAD4   43      4       20      62      66      24      0.      0.
CQUAD4   44      4       62      63      67      66      0.      0.
CQUAD4   45      4       63      64      68      67      0.      0.
CQUAD4   46      4       24      66      70      28      0.      0.
CQUAD4   47      4       66      67      71      70      0.      0.
CQUAD4   48      4       67      68      72      71      0.      0.
CQUAD4   49      4       28      70      74      32      0.      0.
CQUAD4   50      4       70      71      75      74      0.      0.
CQUAD4   51      4       71      72      76      75      0.      0.
CQUAD4   52      4       32      74      78      36      0.      0.
CQUAD4   53      4       74      75      79      78      0.      0.
CQUAD4   54      4       75      76      80      79      0.      0.
CQUAD4   55      4       36      78      82      40      0.      0.
CQUAD4   56      4       78      79      83      82      0.      0.
CQUAD4   57      4       79      80      84      83      0.      0.
CQUAD4   58      4       40      82      86      44      0.      0.
CQUAD4   59      4       82      83      87      86      0.      0.
CQUAD4   60      4       83      84      88      87      0.      0.
CQUAD4   61      4       48      90      94      52      0.      0.
CQUAD4   62      4       90      91      95      94      0.      0.
CQUAD4   63      4       91      92      96      95      0.      0.
CQUAD4   64      4       52      94      98      56      0.      0.
CQUAD4   65      4       94      95      99      98      0.      0.
CQUAD4   66      4       95      96      100     99      0.      0.
CQUAD4   67      4       56      98      102     60      0.      0.
CQUAD4   68      4       98      99      103     102     0.      0.
CQUAD4   69      4       99      100     104     103     0.      0.
CQUAD4   70      4       60      102     106     64      0.      0.
CQUAD4   71      4       102     103     107     106     0.      0.
CQUAD4   72      4       103     104     108     107     0.      0.
CQUAD4   73      4       64      106     110     68      0.      0.
CQUAD4   74      4       106     107     111     110     0.      0.
CQUAD4   75      4       107     108     112     111     0.      0.
CQUAD4   76      4       68      110     114     72      0.      0.
CQUAD4   77      4       110     111     115     114     0.      0.
CQUAD4   78      4       111     112     116     115     0.      0.
CQUAD4   79      4       72      114     118     76      0.      0.
CQUAD4   80      4       114     115     119     118     0.      0.
CQUAD4   81      4       115     116     120     119     0.      0.
CQUAD4   82      4       76      118     122     80      0.      0.
CQUAD4   83      4       118     119     123     122     0.      0.
CQUAD4   84      4       119     120     124     123     0.      0.
CQUAD4   85      4       80      122     126     84      0.      0.
CQUAD4   86      4       122     123     127     126     0.      0.
CQUAD4   87      4       123     124     128     127     0.      0.
CQUAD4   88      4       84      126     130     88      0.      0.
CQUAD4   89      4       126     127     131     130     0.      0.
CQUAD4   90      4       127     128     132     131     0.      0.
CQUAD4   91      4       92      134     138     96      0.      0.
CQUAD4   92      4       134     135     139     138     0.      0.
CQUAD4   93      4       135     136     140     139     0.      0.
CQUAD4   94      4       96      138     142     100     0.      0.
CQUAD4   95      4       138     139     143     142     0.      0.
CQUAD4   96      4       139     140     144     143     0.      0.
CQUAD4   97      4       100     142     146     104     0.      0.
CQUAD4   98      4       142     143     147     146     0.      0.
CQUAD4   99      4       143     144     148     147     0.      0.
CQUAD4   100     4       104     146     150     108     0.      0.
CQUAD4   101     4       146     147     151     150     0.      0.
CQUAD4   102     4       147     148     152     151     0.      0.
CQUAD4   103     4       108     150     154     112     0.      0.
CQUAD4   104     4       150     151     155     154     0.      0.
CQUAD4   105     4       151     152     156     155     0.      0.
CQUAD4   106     4       112     154     158     116     0.      0.
CQUAD4   107     4       154     155     159     158     0.      0.
CQUAD4   108     4       155     156     160     159     0.      0.
CQUAD4   109     4       116     158     162     120     0.      0.
CQUAD4   110     4       158     159     163     162     0.      0.
CQUAD4   111     4       159     160     164     163     0.      0.
CQUAD4   112     4       120     162     166     124     0.      0.
CQUAD4   113     4       162     163     167     166     0.      0.
CQUAD4   114     4       163     164     168     167     0.      0.
CQUAD4   115     4       124     166     170     128     0.      0.
CQUAD4   116     4       166     167     171     170     0.      0.
CQUAD4   117     4       167     168     172     171     0.      0.
CQUAD4   118     4       128     170     174     132     0.      0.
CQUAD4   119     4       170     171     175     174     0.      0.
CQUAD4   120     4       171     172     176     175     0.      0.
CQUAD4   121     4       136     178     182     140     0.      0.
CQUAD4   122     4       178     179     183     182     0.      0.
CQUAD4   123     4       179     180     184     183     0.      0.
CQUAD4   124     4       140     182     186     144     0.      0.
CQUAD4   125     4       182     183     187     186     0.      0.
CQUAD4   126     4       183     184     188     187     0.      0.
CQUAD4   127     4       144     186     190     148     0.      0.
CQUAD4   128     4       186     187     191     190     0.      0.
CQUAD4   129     4       187     188     192     191     0.      0.
CQUAD4   130     4       148     190     194     152     0.      0.
CQUAD4   131     4       190     191     195     194     0.      0.
CQUAD4   132     4       191     192     196     195     0.      0.
CQUAD4   133     4       152     194     198     156     0.      0.
CQUAD4   134     4       194     195     199     198     0.      0.
CQUAD4   135     4       195     196     200     199     0.      0.
CQUAD4   136     4       156     198     202     160     0.      0.
CQUAD4   137     4       198     199     203     202     0.      0.
CQUAD4   138     4       199     200     204     203     0.      0.
CQUAD4   139     4       160     202     206     164     0.      0.
CQUAD4   140     4       202     203     207     206     0.      0.
CQUAD4   141     4       203     204     208     207     0.      0.
CQUAD4   142     4       164     206     210     168     0.      0.
CQUAD4   143     4       206     207     211     210     0.      0.
CQUAD4   144     4       207     208     212     211     0.      0.
CQUAD4   145     4       168     210     214     172     0.      0.
CQUAD4   146     4       210     211     215     214     0.      0.
CQUAD4   147     4       211     212     216     215     0.      0.
CQUAD4   148     4       172     214     218     176     0.      0.
CQUAD4   149     4       214     215     219     218     0.      0.
CQUAD4   150     4       215     216     220     219     0.      0.
CQUAD4   151     4       180     222     226     184     0.      0.
CQUAD4   152     4       222     223     227     226     0.      0.
CQUAD4   153     4       223     1       5       227     0.      0.
CQUAD4   154     4       184     226     230     188     0.      0.
CQUAD4   155     4       226     227     231     230     0.      0.
CQUAD4   156     4       227     5       9       231     0.      0.
CQUAD4   157     4       188     230     234     192     0.      0.
CQUAD4   158     4       230     231     235     234     0.      0.
CQUAD4   159     4       231     9       13      235     0.      0.
CQUAD4   160     4       192     234     238     196     0.      0.
CQUAD4   161     4       234     235     239     238     0.      0.
CQUAD4   162     4       235     13      17      239     0.      0.
CQUAD4   163     4       196     238     242     200     0.      0.
CQUAD4   164     4       238     239     243     242     0.      0.
CQUAD4   165     4       239     17      21      243     0.      0.
CQUAD4   166     4       200     242     246     204     0.      0.
CQUAD4   167     4       242     243     247     246     0.      0.
CQUAD4   168     4       243     21      25      247     0.      0.
CQUAD4   169     4       204     246     250     208     0.      0.
CQUAD4   170     4       246     247     251     250     0.      0.
CQUAD4   171     4       247     25      29      251     0.      0.
CQUAD4   172     4       208     250     254     212     0.      0.
CQUAD4   173     4       250     251     255     254     0.      0.
CQUAD4   174     4       251     29      33      255     0.      0.
CQUAD4   175     4       212     254     258     216     0.      0.
CQUAD4   176     4       254     255     259     258     0.      0.
CQUAD4   177     4       255     33      37      259     0.      0.
CQUAD4   178     4       216     258     262     220     0.      0.
CQUAD4   179     4       258     259     263     262     0.      0.
CQUAD4   180     4       259     37      41      263     0.      0.
$ Referenced Material Records
$ Material Record : aluminium
$ Description of Material :
MAT1     1      1.05+7  3.9474+6.33     .101
$ Material Record : titanium
$ Description of Material :
MAT1     2      1.6+7   6.2992+6.27     .16
$ Nodes of the Entire Model
GRID     1              12.      0.      0.
GRID     2              11.276314.104245 0.
GRID     3              9.1925297.713456 0.
GRID     4              6.      10.39231 0.
GRID     5              12.      0.     5.
GRID     6              11.276314.1042455.
GRID     7              9.1925297.7134565.
GRID     8              6.      10.392315.
GRID     9              12.      0.     10.
GRID     10             11.276314.10424510.
GRID     11             9.1925297.71345610.
GRID     12             6.      10.3923110.
GRID     13             12.      0.     15.
GRID     14             11.276314.10424515.
GRID     15             9.1925297.71345615.
GRID     16             6.      10.3923115.
GRID     17             12.      0.     20.
GRID     18             11.276314.10424520.
GRID     19             9.1925297.71345620.
GRID     20             6.      10.3923120.
GRID     21             12.      0.     25.
GRID     22             11.276314.10424525.
GRID     23             9.1925297.71345625.
GRID     24             6.      10.3923125.
GRID     25             12.      0.     30.
GRID     26             11.276314.10424530.
GRID     27             9.1925297.71345630.
GRID     28             6.      10.3923130.
GRID     29             12.      0.     35.
GRID     30             11.276314.10424535.
GRID     31             9.1925297.71345635.
GRID     32             6.      10.3923135.
GRID     33             12.      0.     40.
GRID     34             11.276314.10424540.
GRID     35             9.1925297.71345640.
GRID     36             6.      10.3923140.
GRID     37             12.      0.     45.
GRID     38             11.276314.10424545.
GRID     39             9.1925297.71345645.
GRID     40             6.      10.3923145.
GRID     41             12.      0.     50.
GRID     42             11.276314.10424550.
GRID     43             9.1925297.71345650.
GRID     44             6.      10.3923150.
GRID     46             2.08377511.81769 0.
GRID     47             -2.0837811.81769 0.
GRID     48             -6.     10.3923  0.
GRID     50             2.08377511.817695.
GRID     51             -2.0837811.817695.
GRID     52             -6.     10.3923 5.
GRID     54             2.08377511.817699.999999
GRID     55             -2.0837811.8176910.
GRID     56             -6.     10.3923 10.
GRID     58             2.08377511.8176915.
GRID     59             -2.0837811.8176915.
GRID     60             -6.     10.3923 15.
GRID     62             2.08377511.8176920.
GRID     63             -2.0837811.8176920.
GRID     64             -6.     10.3923 20.
GRID     66             2.08377511.8176925.
GRID     67             -2.0837811.8176925.
GRID     68             -6.     10.3923 25.
GRID     70             2.08377511.8176930.
GRID     71             -2.0837811.8176930.
GRID     72             -6.     10.3923 30.
GRID     74             2.08377511.8176935.
GRID     75             -2.0837811.8176935.
GRID     76             -6.     10.3923 35.
GRID     78             2.08377511.8176940.
GRID     79             -2.0837811.8176940.
GRID     80             -6.     10.3923 40.
GRID     82             2.08377511.8176945.
GRID     83             -2.0837811.8176945.
GRID     84             -6.     10.3923 45.
GRID     86             2.08377511.8176950.
GRID     87             -2.0837811.8176950.
GRID     88             -6.     10.3923 50.
GRID     90             -9.192537.713449 0.
GRID     91             -11.27634.104236 0.
GRID     92             -12.    -1.062-6 0.
GRID     94             -9.192537.7134495.
GRID     95             -11.27634.1042365.
GRID     96             -12.    -1.062-65.
GRID     98             -9.192537.7134499.999999
GRID     99             -11.27634.10423610.
GRID     100            -12.    -1.062-610.
GRID     102            -9.192537.71344915.
GRID     103            -11.27634.10423615.
GRID     104            -12.    -1.062-615.
GRID     106            -9.192537.71344920.
GRID     107            -11.27634.10423620.
GRID     108            -12.    -1.062-620.
GRID     110            -9.192537.71344925.
GRID     111            -11.27634.10423625.
GRID     112            -12.    -1.062-625.
GRID     114            -9.192537.71344930.
GRID     115            -11.27634.10423630.
GRID     116            -12.    -1.062-630.
GRID     118            -9.192537.71344935.
GRID     119            -11.27634.10423635.
GRID     120            -12.    -1.062-635.
GRID     122            -9.192537.71344940.
GRID     123            -11.27634.10423640.
GRID     124            -12.    -1.062-640.
GRID     126            -9.192537.71344945.
GRID     127            -11.27634.10423645.
GRID     128            -12.    -1.062-645.
GRID     130            -9.192537.71344950.
GRID     131            -11.27634.10423650.
GRID     132            -12.    -1.062-650.
GRID     134            -11.2763-4.10424 0.
GRID     135            -9.19252-7.71345 0.
GRID     136            -5.99999-10.3923 0.
GRID     138            -11.2763-4.104245.
GRID     139            -9.19252-7.713455.
GRID     140            -5.99999-10.39235.
GRID     142            -11.2763-4.104249.999999
GRID     143            -9.19252-7.7134510.
GRID     144            -5.99999-10.392310.
GRID     146            -11.2763-4.1042415.
GRID     147            -9.19252-7.7134515.
GRID     148            -5.99999-10.392315.
GRID     150            -11.2763-4.1042420.
GRID     151            -9.19252-7.7134520.
GRID     152            -5.99999-10.392320.
GRID     154            -11.2763-4.1042425.
GRID     155            -9.19252-7.7134525.
GRID     156            -5.99999-10.392325.
GRID     158            -11.2763-4.1042430.
GRID     159            -9.19252-7.7134530.
GRID     160            -5.99999-10.392330.
GRID     162            -11.2763-4.1042435.
GRID     163            -9.19252-7.7134535.
GRID     164            -5.99999-10.392335.
GRID     166            -11.2763-4.1042440.
GRID     167            -9.19252-7.7134540.
GRID     168            -5.99999-10.392340.
GRID     170            -11.2763-4.1042445.
GRID     171            -9.19252-7.7134545.
GRID     172            -5.99999-10.392345.
GRID     174            -11.2763-4.1042450.
GRID     175            -9.19252-7.7134550.
GRID     176            -5.99999-10.392350.
GRID     178            -2.08377-11.8176 0.
GRID     179            2.083785-11.8176 0.
GRID     180            6.000001-10.3923 0.
GRID     182            -2.08377-11.81765.
GRID     183            2.083785-11.81765.
GRID     184            6.000001-10.39235.
GRID     186            -2.08377-11.81769.999999
GRID     187            2.083785-11.817610.
GRID     188            6.000001-10.392310.
GRID     190            -2.08377-11.817615.
GRID     191            2.083785-11.817615.
GRID     192            6.000001-10.392315.
GRID     194            -2.08377-11.817620.
GRID     195            2.083785-11.817620.
GRID     196            6.000001-10.392320.
GRID     198            -2.08377-11.817625.
GRID     199            2.083785-11.817625.
GRID     200            6.000001-10.392325.
GRID     202            -2.08377-11.817630.
GRID     203            2.083785-11.817630.
GRID     204            6.000001-10.392330.
GRID     206            -2.08377-11.817635.
GRID     207            2.083785-11.817635.
GRID     208            6.000001-10.392335.
GRID     210            -2.08377-11.817640.
GRID     211            2.083785-11.817640.
GRID     212            6.000001-10.392340.
GRID     214            -2.08377-11.817645.
GRID     215            2.083785-11.817645.
GRID     216            6.000001-10.392345.
GRID     218            -2.08377-11.817650.
GRID     219            2.083785-11.817650.
GRID     220            6.000001-10.392350.
GRID     222            9.192534-7.71345 0.
GRID     223            11.27631-4.10423 0.
GRID     226            9.192534-7.713455.
GRID     227            11.27631-4.104235.
GRID     230            9.192534-7.713459.999999
GRID     231            11.27631-4.104239.999999
GRID     234            9.192534-7.7134515.
GRID     235            11.27631-4.1042315.
GRID     238            9.192534-7.7134520.
GRID     239            11.27631-4.1042320.
GRID     242            9.192534-7.7134525.
GRID     243            11.27631-4.1042325.
GRID     246            9.192534-7.7134530.
GRID     247            11.27631-4.1042330.
GRID     250            9.192534-7.7134535.
GRID     251            11.27631-4.1042335.
GRID     254            9.192534-7.7134540.
GRID     255            11.27631-4.1042340.
GRID     258            9.192534-7.7134545.
GRID     259            11.27631-4.1042345.
GRID     262            9.192534-7.7134550.
GRID     263            11.27631-4.1042350.
GRID     266            14.66667 0.     -5.
GRID     267            17.33333 0.     -10.
GRID     268            20.      0.     -15.
GRID     270            13.782165.016302-5.
GRID     271            16.288  5.928359-10.
GRID     272            18.793856.840415-15.
GRID     274            11.235319.427563-5.
GRID     275            13.2780911.14167-10.
GRID     276            15.3208712.85577-15.
GRID     278            7.33333312.70171-5.
GRID     279            8.66666615.01111-10.
GRID     280            9.99999917.32051-15.
GRID     286            2.54683514.44385-5.
GRID     287            3.00989317.07   -10.
GRID     288            3.47294919.69616-15.
GRID     290            -2.5468414.44385-5.
GRID     291            -3.0099117.07   -10.
GRID     292            -3.4729919.69615-15.
GRID     294            -7.3333312.70171-5.
GRID     295            -8.6666615.01111-10.
GRID     296            -10.    17.32051-15.
GRID     302            -11.23539.427546-5.
GRID     303            -13.278111.14164-10.
GRID     304            -15.320912.85574-15.
GRID     306            -13.78215.016282-5.
GRID     307            -16.288 5.928329-10.
GRID     308            -18.79386.840376-15.
GRID     310            -14.6666-1.299-6-5.
GRID     311            -17.3333-1.535-6-10.
GRID     312            -20.    -1.771-6-15.
GRID     318            -13.7821-5.0163 -5.
GRID     319            -16.288 -5.92836-10.
GRID     320            -18.7938-6.84041-15.
GRID     322            -11.2353-9.42756-5.
GRID     323            -13.278 -11.1416-10.
GRID     324            -15.3208-12.8557-15.
GRID     326            -7.33333-12.7017-5.
GRID     327            -8.66666-15.0111-10.
GRID     328            -9.99999-17.3205-15.
GRID     334            -2.54683-14.4438-5.
GRID     335            -3.00989-17.07  -10.
GRID     336            -3.47294-19.6961-15.
GRID     338            2.546849-14.4438-5.
GRID     339            3.009919-17.07  -10.
GRID     340            3.472991-19.6961-15.
GRID     342            7.333335-12.7017-5.
GRID     343            8.666669-15.0111-10.
GRID     344            10.     -17.3205-15.
GRID     350            11.23532-9.42754-5.
GRID     351            13.27811-11.1416-10.
GRID     352            15.3209 -12.8557-15.
GRID     354            13.78216-5.01628-5.
GRID     355            16.28801-5.92833-10.
GRID     356            18.79386-6.84037-15.
GRID     361             0.      0.      0.
GRID     362            4.       0.      0.
GRID     363            8.       0.      0.
GRID     366            7.5423193.108323 0.
GRID     367            4.4183272.553697 0.
GRID     369            6.4705415.778221 0.
GRID     370            4.6309894.508386 0.
GRID     371            1.5     2.598076 0.
GRID     372            3.      5.196153 0.
GRID     373            4.5     7.794229 0.
GRID     379            16.8     0.      0.
GRID     380            15.021055.361863 0.
GRID     381            12.1540210.3277  0.
GRID     382            8.4     14.54923 0.
GRID     383            21.6     0.      0.
GRID     384            18.765786.619474 0.
GRID     385            15.1155112.94193 0.
GRID     386            10.8    18.70615 0.
GRID     387            26.4     0.      0.
GRID     388            22.510527.877086 0.
GRID     389            18.0770115.55616 0.
GRID     390            13.2    22.86307 0.
GRID     391            31.2     0.      0.
GRID     392            26.255269.134696 0.
GRID     393            21.0385 18.17039 0.
GRID     394            15.6    27.01999 0.
GRID     395            36.      0.      0.
GRID     396            30.     10.39231 0.
GRID     397            24.     20.78461 0.
GRID     398            18.     31.17692 0.
GRID     404            1.5888816.264748 0.
GRID     405            1.7688128.492764 0.
GRID     407            .00240125.103231 0.
GRID     408            -1.079278.086    0.
GRID     410            -2.     3.464102 0.
GRID     411            -4.     6.928203 0.
GRID     418            2.86701815.68954 0.
GRID     419            -2.8670315.68954 0.
GRID     420            -8.4    14.54923 0.
GRID     422            3.65026219.56138 0.
GRID     423            -3.6502719.56138 0.
GRID     424            -10.8   18.70615 0.
GRID     426            4.43350723.43323 0.
GRID     427            -4.4335123.43323 0.
GRID     428            -13.2   22.86307 0.
GRID     430            5.21675227.30507 0.
GRID     431            -5.2167627.30507 0.
GRID     432            -15.6   27.01999 0.
GRID     434            5.99999731.17692 0.
GRID     435            -6.     31.17691 0.
GRID     436            -18.    31.17691 0.
GRID     442            -6.463044.977678 0.
GRID     443            -4.420732.549535 0.
GRID     445            -8.239352.714542 0.
GRID     446            -6.219871.756361 0.
GRID     447            -3.     -2.656-7 0.
GRID     448            -6.     -5.312-7 0.
GRID     449            -9.     -7.968-7 0.
GRID     456            -12.154 10.32768 0.
GRID     457            -15.021 5.361839 0.
GRID     458            -16.8   -1.767-6 0.
GRID     460            -15.115512.94191 0.
GRID     461            -18.76576.619453 0.
GRID     462            -21.6   -2.471-6 0.
GRID     464            -18.077 15.55614 0.
GRID     465            -22.51057.877067 0.
GRID     466            -26.4   -3.175-6 0.
GRID     468            -21.038518.17037 0.
GRID     469            -26.25529.134684 0.
GRID     470            -31.2   -3.879-6 0.
GRID     472            -24.    20.78461 0.
GRID     473            -30.    10.3923  0.
GRID     474            -36.    -4.583-6 0.
GRID     480            -6.21987-1.75636 0.
GRID     481            -8.23935-2.71454 0.
GRID     483            -4.42072-2.54953 0.
GRID     484            -6.46304-4.97768 0.
GRID     486            -2.     -3.4641  0.
GRID     487            -3.99999-6.9282  0.
GRID     494            -15.021 -5.36186 0.
GRID     495            -12.154 -10.3277 0.
GRID     496            -8.39999-14.5492 0.
GRID     498            -18.7657-6.61947 0.
GRID     499            -15.1155-12.9419 0.
GRID     500            -10.8   -18.7061 0.
GRID     502            -22.5105-7.87708 0.
GRID     503            -18.077 -15.5561 0.
GRID     504            -13.2   -22.863  0.
GRID     506            -26.2552-9.13469 0.
GRID     507            -21.0385-18.1703 0.
GRID     508            -15.6   -27.02   0.
GRID     510            -30.    -10.3923 0.
GRID     511            -24.    -20.7846 0.
GRID     512            -18.    -31.1769 0.
GRID     518            -1.07927-8.086   0.
GRID     519            .0024026-5.10323 0.
GRID     521            1.768815-8.49276 0.
GRID     522            1.588882-6.26474 0.
GRID     523            1.5     -2.59807 0.
GRID     524            3.000001-5.19615 0.
GRID     525            4.500001-7.79422 0.
GRID     532            -2.86701-15.6895 0.
GRID     533            2.867032-15.6895 0.
GRID     534            8.400002-14.5492 0.
GRID     536            -3.65026-19.5613 0.
GRID     537            3.650275-19.5613 0.
GRID     538            10.8    -18.7061 0.
GRID     540            -4.4335 -23.4332 0.
GRID     541            4.43352 -23.4332 0.
GRID     542            13.2    -22.863  0.
GRID     544            -5.21675-27.305  0.
GRID     545            5.216762-27.305  0.
GRID     546            15.6    -27.0199 0.
GRID     548            -5.99999-31.1769 0.
GRID     549            6.000006-31.1769 0.
GRID     550            18.00001-31.1769 0.
GRID     556            4.63099 -4.50838 0.
GRID     557            6.470543-5.77821 0.
GRID     559            4.418327-2.55369 0.
GRID     560            7.54232 -3.10831 0.
GRID     570            12.15403-10.3276 0.
GRID     571            15.02105-5.36184 0.
GRID     574            15.11552-12.9419 0.
GRID     575            18.76579-6.61945 0.
GRID     578            18.07701-15.5561 0.
GRID     579            22.51053-7.87707 0.
GRID     582            21.03851-18.1703 0.
GRID     583            26.25526-9.13468 0.
GRID     586            24.     -20.7846 0.
GRID     587            30.     -10.3923 0.
GRID     596            16.8     0.     5.
GRID     597            21.6     0.     5.
GRID     598            26.4     0.     5.
GRID     599            31.2     0.     5.
GRID     600            36.      0.     5.
GRID     602            16.8     0.     9.999999
GRID     603            21.6     0.     9.999999
GRID     604            26.4     0.     10.
GRID     605            31.2     0.     10.
GRID     606            36.      0.     10.
GRID     608            16.8     0.     15.
GRID     609            21.6     0.     15.
GRID     610            26.4     0.     15.
GRID     611            31.2     0.     15.
GRID     612            36.      0.     15.
GRID     614            16.8     0.     20.
GRID     615            21.6     0.     20.
GRID     616            26.4     0.     20.
GRID     617            31.2     0.     20.
GRID     618            36.      0.     20.
GRID     620            16.8     0.     25.
GRID     621            21.6     0.     25.
GRID     622            26.4     0.     25.
GRID     623            31.2     0.     25.
GRID     624            36.      0.     25.
GRID     626            16.8     0.     30.
GRID     627            21.6     0.     30.
GRID     628            26.4     0.     30.
GRID     629            31.2     0.     30.
GRID     630            36.      0.     30.
GRID     632            16.8     0.     35.
GRID     633            21.6     0.     35.
GRID     634            26.4     0.     35.
GRID     635            31.2     0.     35.
GRID     636            36.      0.     35.
GRID     638            16.8     0.     40.
GRID     639            21.6     0.     40.
GRID     640            26.4     0.     40.
GRID     641            31.2     0.     40.
GRID     642            36.      0.     40.
GRID     644            16.8     0.     45.
GRID     645            21.6     0.     45.
GRID     646            26.4     0.     45.
GRID     647            31.2     0.     45.
GRID     648            36.      0.     45.
GRID     650            16.8     0.     50.
GRID     651            21.6     0.     50.
GRID     652            26.4     0.     50.
GRID     653            31.2     0.     50.
GRID     654            36.      0.     50.
GRID     662            8.4     14.549235.
GRID     663            10.8    18.706155.
GRID     664            13.2    22.863075.
GRID     665            15.6    27.019995.
GRID     666            18.     31.176925.
GRID     668            8.4     14.549239.999999
GRID     669            10.8    18.706159.999999
GRID     670            13.2    22.8630710.
GRID     671            15.6    27.0199910.
GRID     672            18.     31.1769210.
GRID     674            8.4     14.5492315.
GRID     675            10.8    18.7061515.
GRID     676            13.2    22.8630715.
GRID     677            15.6    27.0199915.
GRID     678            18.     31.1769215.
GRID     680            8.4     14.5492320.
GRID     681            10.8    18.7061520.
GRID     682            13.2    22.8630720.
GRID     683            15.6    27.0199920.
GRID     684            18.     31.1769220.
GRID     686            8.4     14.5492325.
GRID     687            10.8    18.7061525.
GRID     688            13.2    22.8630725.
GRID     689            15.6    27.0199925.
GRID     690            18.     31.1769225.
GRID     692            8.4     14.5492330.
GRID     693            10.8    18.7061530.
GRID     694            13.2    22.8630730.
GRID     695            15.6    27.0199930.
GRID     696            18.     31.1769230.
GRID     698            8.4     14.5492335.
GRID     699            10.8    18.7061535.
GRID     700            13.2    22.8630735.
GRID     701            15.6    27.0199935.
GRID     702            18.     31.1769235.
GRID     704            8.4     14.5492340.
GRID     705            10.8    18.7061540.
GRID     706            13.2    22.8630740.
GRID     707            15.6    27.0199940.
GRID     708            18.     31.1769240.
GRID     710            8.4     14.5492345.
GRID     711            10.8    18.7061545.
GRID     712            13.2    22.8630745.
GRID     713            15.6    27.0199945.
GRID     714            18.     31.1769245.
GRID     716            8.4     14.5492350.
GRID     717            10.8    18.7061550.
GRID     718            13.2    22.8630750.
GRID     719            15.6    27.0199950.
GRID     720            18.     31.1769250.
GRID     728            -8.4    14.549235.
GRID     729            -10.8   18.706155.
GRID     730            -13.2   22.863075.
GRID     731            -15.6   27.019995.
GRID     732            -18.    31.176915.
GRID     734            -8.4    14.549239.999999
GRID     735            -10.8   18.706159.999999
GRID     736            -13.2   22.8630710.
GRID     737            -15.6   27.0199910.
GRID     738            -18.    31.1769110.
GRID     740            -8.4    14.5492315.
GRID     741            -10.8   18.7061515.
GRID     742            -13.2   22.8630715.
GRID     743            -15.6   27.0199915.
GRID     744            -18.    31.1769115.
GRID     746            -8.4    14.5492320.
GRID     747            -10.8   18.7061520.
GRID     748            -13.2   22.8630720.
GRID     749            -15.6   27.0199920.
GRID     750            -18.    31.1769120.
GRID     752            -8.4    14.5492325.
GRID     753            -10.8   18.7061525.
GRID     754            -13.2   22.8630725.
GRID     755            -15.6   27.0199925.
GRID     756            -18.    31.1769125.
GRID     758            -8.4    14.5492330.
GRID     759            -10.8   18.7061530.
GRID     760            -13.2   22.8630730.
GRID     761            -15.6   27.0199930.
GRID     762            -18.    31.1769130.
GRID     764            -8.4    14.5492335.
GRID     765            -10.8   18.7061535.
GRID     766            -13.2   22.8630735.
GRID     767            -15.6   27.0199935.
GRID     768            -18.    31.1769135.
GRID     770            -8.4    14.5492340.
GRID     771            -10.8   18.7061540.
GRID     772            -13.2   22.8630740.
GRID     773            -15.6   27.0199940.
GRID     774            -18.    31.1769140.
GRID     776            -8.4    14.5492345.
GRID     777            -10.8   18.7061545.
GRID     778            -13.2   22.8630745.
GRID     779            -15.6   27.0199945.
GRID     780            -18.    31.1769145.
GRID     782            -8.4    14.5492350.
GRID     783            -10.8   18.7061550.
GRID     784            -13.2   22.8630750.
GRID     785            -15.6   27.0199950.
GRID     786            -18.    31.1769150.
GRID     794            -16.8   -1.767-65.
GRID     795            -21.6   -2.471-65.
GRID     796            -26.4   -3.175-65.
GRID     797            -31.2   -3.879-65.
GRID     798            -36.    -4.583-65.
GRID     800            -16.8   -1.767-69.999999
GRID     801            -21.6   -2.471-69.999999
GRID     802            -26.4   -3.175-610.
GRID     803            -31.2   -3.879-610.
GRID     804            -36.    -4.583-610.
GRID     806            -16.8   -1.767-615.
GRID     807            -21.6   -2.471-615.
GRID     808            -26.4   -3.175-615.
GRID     809            -31.2   -3.879-615.
GRID     810            -36.    -4.583-615.
GRID     812            -16.8   -1.767-620.
GRID     813            -21.6   -2.471-620.
GRID     814            -26.4   -3.175-620.
GRID     815            -31.2   -3.879-620.
GRID     816            -36.    -4.583-620.
GRID     818            -16.8   -1.767-625.
GRID     819            -21.6   -2.471-625.
GRID     820            -26.4   -3.175-625.
GRID     821            -31.2   -3.879-625.
GRID     822            -36.    -4.583-625.
GRID     824            -16.8   -1.767-630.
GRID     825            -21.6   -2.471-630.
GRID     826            -26.4   -3.175-630.
GRID     827            -31.2   -3.879-630.
GRID     828            -36.    -4.583-630.
GRID     830            -16.8   -1.767-635.
GRID     831            -21.6   -2.471-635.
GRID     832            -26.4   -3.175-635.
GRID     833            -31.2   -3.879-635.
GRID     834            -36.    -4.583-635.
GRID     836            -16.8   -1.767-640.
GRID     837            -21.6   -2.471-640.
GRID     838            -26.4   -3.175-640.
GRID     839            -31.2   -3.879-640.
GRID     840            -36.    -4.583-640.
GRID     842            -16.8   -1.767-645.
GRID     843            -21.6   -2.471-645.
GRID     844            -26.4   -3.175-645.
GRID     845            -31.2   -3.879-645.
GRID     846            -36.    -4.583-645.
GRID     848            -16.8   -1.767-650.
GRID     849            -21.6   -2.471-650.
GRID     850            -26.4   -3.175-650.
GRID     851            -31.2   -3.879-650.
GRID     852            -36.    -4.583-650.
GRID     860            -8.39999-14.54925.
GRID     861            -10.8   -18.70615.
GRID     862            -13.2   -22.863 5.
GRID     863            -15.6   -27.01995.
GRID     864            -18.    -31.17695.
GRID     866            -8.39999-14.54929.999999
GRID     867            -10.8   -18.70619.999999
GRID     868            -13.2   -22.863 10.
GRID     869            -15.6   -27.019910.
GRID     870            -18.    -31.176910.
GRID     872            -8.39999-14.549215.
GRID     873            -10.8   -18.706115.
GRID     874            -13.2   -22.863 15.
GRID     875            -15.6   -27.019915.
GRID     876            -18.    -31.176915.
GRID     878            -8.39999-14.549220.
GRID     879            -10.8   -18.706120.
GRID     880            -13.2   -22.863 20.
GRID     881            -15.6   -27.019920.
GRID     882            -18.    -31.176920.
GRID     884            -8.39999-14.549225.
GRID     885            -10.8   -18.706125.
GRID     886            -13.2   -22.863 25.
GRID     887            -15.6   -27.019925.
GRID     888            -18.    -31.176925.
GRID     890            -8.39999-14.549230.
GRID     891            -10.8   -18.706130.
GRID     892            -13.2   -22.863 30.
GRID     893            -15.6   -27.019930.
GRID     894            -18.    -31.176930.
GRID     896            -8.39999-14.549235.
GRID     897            -10.8   -18.706135.
GRID     898            -13.2   -22.863 35.
GRID     899            -15.6   -27.019935.
GRID     900            -18.    -31.176935.
GRID     902            -8.39999-14.549240.
GRID     903            -10.8   -18.706140.
GRID     904            -13.2   -22.863 40.
GRID     905            -15.6   -27.02  40.
GRID     906            -18.    -31.176940.
GRID     908            -8.39999-14.549245.
GRID     909            -10.8   -18.706145.
GRID     910            -13.2   -22.863 45.
GRID     911            -15.6   -27.02  45.
GRID     912            -18.    -31.176945.
GRID     914            -8.39999-14.549250.
GRID     915            -10.8   -18.706150.
GRID     916            -13.2   -22.863 50.
GRID     917            -15.6   -27.02  50.
GRID     918            -18.    -31.176950.
GRID     926            8.400002-14.54925.
GRID     927            10.8    -18.70615.
GRID     928            13.2    -22.863 5.
GRID     929            15.6    -27.01995.
GRID     930            18.00001-31.17695.
GRID     932            8.400002-14.54929.999999
GRID     933            10.8    -18.70619.999999
GRID     934            13.2    -22.863 10.
GRID     935            15.6    -27.019910.
GRID     936            18.00001-31.176910.
GRID     938            8.400002-14.549215.
GRID     939            10.8    -18.706115.
GRID     940            13.2    -22.863 15.
GRID     941            15.6    -27.019915.
GRID     942            18.00001-31.176915.
GRID     944            8.400002-14.549220.
GRID     945            10.8    -18.706120.
GRID     946            13.2    -22.863 20.
GRID     947            15.6    -27.019920.
GRID     948            18.00001-31.176920.
GRID     950            8.400002-14.549225.
GRID     951            10.8    -18.706125.
GRID     952            13.2    -22.863 25.
GRID     953            15.6    -27.019925.
GRID     954            18.00001-31.176925.
GRID     956            8.400002-14.549230.
GRID     957            10.8    -18.706130.
GRID     958            13.2    -22.863 30.
GRID     959            15.6    -27.019930.
GRID     960            18.00001-31.176930.
GRID     962            8.400002-14.549235.
GRID     963            10.8    -18.706135.
GRID     964            13.2    -22.863 35.
GRID     965            15.6    -27.019935.
GRID     966            18.00001-31.176935.
GRID     968            8.400002-14.549240.
GRID     969            10.8    -18.706140.
GRID     970            13.2    -22.863 40.
GRID     971            15.6    -27.019940.
GRID     972            18.00001-31.176940.
GRID     974            8.400002-14.549245.
GRID     975            10.8    -18.706145.
GRID     976            13.2    -22.863 45.
GRID     977            15.6    -27.019945.
GRID     978            18.00001-31.176945.
GRID     980            8.400002-14.549250.
GRID     981            10.8    -18.706150.
GRID     982            13.2    -22.863 50.
GRID     983            15.6    -27.019950.
GRID     984            18.00001-31.176950.
GRID     987            33.428574.45384650.
GRID     988            30.857148.90769250.
GRID     989            28.2857113.3615450.
GRID     990            25.7142817.8153850.
GRID     991            23.1428522.2692350.
GRID     992            20.5714326.7230750.
GRID     994            12.8571431.1769250.
GRID     995            7.71428331.1769250.
GRID     996            2.57142631.1769250.
GRID     997            -2.5714331.1769150.
GRID     998            -7.7142831.1769150.
GRID     999            -12.857131.1769150.
GRID     1001           -20.571426.7230750.
GRID     1002           -23.142822.2692250.
GRID     1003           -25.714217.8153850.
GRID     1004           -28.285713.3615350.
GRID     1005           -30.85718.90768550.
GRID     1006           -33.42854.45383850.
GRID     1008           -33.4285-4.4538550.
GRID     1009           -30.8571-8.9076950.
GRID     1010           -28.2857-13.361550.
GRID     1011           -25.7142-17.815350.
GRID     1012           -23.1428-22.269250.
GRID     1013           -20.5714-26.723 50.
GRID     1015           -12.8571-31.176950.
GRID     1016           -7.71427-31.176950.
GRID     1017           -2.57142-31.176950.
GRID     1018           2.571436-31.176950.
GRID     1019           7.714293-31.176950.
GRID     1020           12.85715-31.176950.
GRID     1021           20.57143-26.723 50.
GRID     1022           23.14286-22.269250.
GRID     1023           25.71428-17.815350.
GRID     1024           28.28571-13.361550.
GRID     1025           30.85714-8.9076950.
GRID     1026           33.42857-4.4538450.
GRID     1069            0.     -1.978-650.
GRID     1070           3.7310291.51241850.
GRID     1071           -.122523-4.1877950.
GRID     1072           4.361357-7.5277450.
GRID     1073           17.9215323.8093350.
GRID     1074           15.0302221.1632450.
GRID     1075           14.4830216.0557750.
GRID     1076           12.2125311.4243950.
GRID     1077           30.201673.13475250.
GRID     1078           24.5490110.9218650.
GRID     1079           21.7162914.9938550.
GRID     1080           19.2180118.9951650.
GRID     1081           -11.649127.3969650.
GRID     1082           -10.818 23.5876650.
GRID     1083           -6.6769720.5462950.
GRID     1084           -3.7495716.2941850.
GRID     1085           12.5247 28.2415550.
GRID     1086           2.94076826.8887250.
GRID     1087           -1.9379526.4165350.
GRID     1088           -6.8334126.1243450.
GRID     1089           -29.551 3.61003150.
GRID     1090           -25.83642.42506950.
GRID     1091           -21.13214.49056450.
GRID     1092           -15.986 4.89973150.
GRID     1093           -18.196324.9672150.
GRID     1094           -21.815215.9906250.
GRID     1095           -23.845811.5295250.
GRID     1096           -26.041 7.14423650.
GRID     1097           -17.9228-23.809550.
GRID     1098           -15.0253-21.159850.
GRID     1099           -14.4713-16.055 50.
GRID     1100           -12.2535-11.378150.
GRID     1101           -30.7204-3.2748 50.
GRID     1102           -24.7099-10.872650.
GRID     1103           -21.6425-14.950150.
GRID     1104           -19.2152-18.999650.
GRID     1105           11.67729-27.302950.
GRID     1106           10.82239-23.674750.
GRID     1107           6.93115 -20.847150.
GRID     1108           3.63323 -16.465550.
GRID     1109           -12.4889-28.120250.
GRID     1110           -7.82008-25.266150.
GRID     1111           -2.78402-27.230450.
GRID     1112           2.195575-26.313850.
GRID     1113           6.89865 -26.152650.
GRID     1114           29.55088-3.6098750.
GRID     1115           25.83686-2.4248250.
GRID     1116           21.13186-4.4904750.
GRID     1117           15.98598-4.8998 50.
GRID     1118           18.19518-24.967650.
GRID     1119           21.81588-15.991450.
GRID     1120           23.84578-11.529850.
GRID     1121           26.04089-7.1441350.
GRID     1122           5.74713 -4.7096350.
GRID     1123           7.126231-1.8039 50.
GRID     1124           8.582829.630654650.
GRID     1125           6.9991343.68036350.
GRID     1126           1.5642058.57885650.
GRID     1127           -2.915297.31262650.
GRID     1128           -5.667074.88469250.
GRID     1129           -8.97562-.97669850.
GRID     1130           -6.43387.735504750.
GRID     1131           -6.13514-5.4950550.
GRID     1132           -3.31627-7.0457 50.
GRID     1133           -.502081-8.2853150.
GRID     1134           -2.90545-2.2640350.
GRID     1135           -2.4591 2.19737250.
GRID     1136           .49630644.66368750.
GRID     1137           15.577166.62828450.
GRID     1138           20.756684.95815950.
GRID     1139           25.588665.47235450.
GRID     1140           20.954879.63430550.
GRID     1141           17.3007612.6003150.
GRID     1142           2.10429517.2510950.
GRID     1143           6.18061 20.7295550.
GRID     1144           8.13358525.4315750.
GRID     1145           2.20258 23.1677550.
GRID     1146           -1.9967521.5892550.
GRID     1147           -13.886810.4482 50.
GRID     1148           -14.861315.7177350.
GRID     1149           -17.958419.7594850.
GRID     1150           -18.961513.4918550.
GRID     1151           -19.69379.06567150.
GRID     1152           -15.985 -6.6493250.
GRID     1153           -21.1294-4.7787250.
GRID     1154           -26.0936-5.6681950.
GRID     1155           -21.1798-9.4543250.
GRID     1156           -17.6278-12.388650.
GRID     1157           -2.19808-17.308150.
GRID     1158           -6.17602-20.697950.
GRID     1159           -2.09959-23.302150.
GRID     1160           1.922595-21.665950.
GRID     1161           13.88682-10.448250.
GRID     1162           14.86164-15.717550.
GRID     1163           17.95715-19.759850.
GRID     1164           18.96134-13.492750.
GRID     1165           19.69375-9.0660150.
GRID     1166           4.6435286.39425850.
GRID     1167           -8.88492-3.4306750.
GRID     1168           2.020108-9.2740550.
$ Loads for Load Case : Launch Modal
SPCADD   2       1
$ Displacement Constraints of Load Set : Launch_Constraints
SPC1     1       123     395     398     436     474     512     550
         654     720     786     852     918     984
$ Referenced Coordinate Frames
CORD2R   1               0.      0.      0.      0.      0.     1.
        1.       0.      0.
ENDDATA 0a769041
