\relax 
\providecommand\hyper@newdestlabel[2]{}
\abx@aux@sortscheme{anyt}
\abx@aux@refcontext{anyt/global/}
\providecommand\HyperFirstAtBeginDocument{\AtBeginDocument}
\HyperFirstAtBeginDocument{\ifx\hyper@anchor\@undefined
\global\let\oldcontentsline\contentsline
\gdef\contentsline#1#2#3#4{\oldcontentsline{#1}{#2}{#3}}
\global\let\oldnewlabel\newlabel
\gdef\newlabel#1#2{\newlabelxx{#1}#2}
\gdef\newlabelxx#1#2#3#4#5#6{\oldnewlabel{#1}{{#2}{#3}}}
\AtEndDocument{\ifx\hyper@anchor\@undefined
\let\contentsline\oldcontentsline
\let\newlabel\oldnewlabel
\fi}
\fi}
\global\let\hyper@last\relax 
\gdef\HyperFirstAtBeginDocument#1{#1}
\providecommand\HyField@AuxAddToFields[1]{}
\providecommand\HyField@AuxAddToCoFields[2]{}
\providecommand\@newglossary[4]{}
\@newglossary{main}{glg}{gls}{glo}
\@newglossary{acronym}{alg}{acr}{acn}
\@writefile{toc}{\boolfalse {citerequest}\boolfalse {citetracker}\boolfalse {pagetracker}\boolfalse {backtracker}\relax }
\@writefile{lof}{\boolfalse {citerequest}\boolfalse {citetracker}\boolfalse {pagetracker}\boolfalse {backtracker}\relax }
\@writefile{lot}{\boolfalse {citerequest}\boolfalse {citetracker}\boolfalse {pagetracker}\boolfalse {backtracker}\relax }
\select@language{english}
\@writefile{toc}{\defcounter {refsection}{0}\relax }\@writefile{toc}{\select@language{english}}
\@writefile{lof}{\defcounter {refsection}{0}\relax }\@writefile{lof}{\select@language{english}}
\@writefile{lot}{\defcounter {refsection}{0}\relax }\@writefile{lot}{\select@language{english}}
\@writefile{toc}{\defcounter {refsection}{0}\relax }\@writefile{toc}{\contentsline {section}{\numberline {1}Performance \& Design of a\\Spaceborne SAR (BIOMASS mission)}{1}{section.1}}
\@writefile{toc}{\defcounter {refsection}{0}\relax }\@writefile{toc}{\contentsline {subsection}{\numberline {1.1}Introduction}{1}{subsection.1.1}}
\newlabel{eq:AGB_fitLaw}{{1}{1}{Introduction}{equation.1.1}{}}
\@writefile{lot}{\defcounter {refsection}{0}\relax }\@writefile{lot}{\contentsline {table}{\numberline {1}{\ignorespaces Reference parameters for the operating conditions of BIOMASS\relax }}{1}{table.caption.1}}
\providecommand*\caption@xref[2]{\@setref\relax\@undefined{#1}}
\newlabel{tab:BIOMASS_params}{{1}{1}{Reference parameters for the operating conditions of BIOMASS\relax }{table.caption.1}{}}
\@writefile{toc}{\defcounter {refsection}{0}\relax }\@writefile{toc}{\contentsline {subsection}{\numberline {1.2}Performance Requirements \& Design}{1}{subsection.1.2}}
\newlabel{item:req1}{{{{i)}}}{1}{Performance Requirements \& Design}{Item.1}{}}
\newlabel{item:req2}{{{{ii)}}}{1}{Performance Requirements \& Design}{Item.2}{}}
\newlabel{item:req3}{{{{iii)}}}{1}{Performance Requirements \& Design}{Item.3}{}}
\@writefile{toc}{\defcounter {refsection}{0}\relax }\@writefile{toc}{\contentsline {subsubsection}{\numberline {1.2.1}Accuracy Requirements}{1}{subsubsection.1.2.1}}
\newlabel{subsec:accuracy_requirements}{{1.2.1}{1}{Accuracy Requirements}{subsubsection.1.2.1}{}}
\newlabel{eq:RSS}{{2}{1}{Accuracy Requirements}{equation.1.2}{}}
\newlabel{eq:uncertPropag}{{3}{2}{Accuracy Requirements}{equation.1.3}{}}
\newlabel{eq:varianceEstim_avg}{{4}{2}{Accuracy Requirements}{equation.1.4}{}}
\@writefile{toc}{\defcounter {refsection}{0}\relax }\@writefile{toc}{\contentsline {subsubsection}{\numberline {1.2.2}Pulse Pattern \& Power Requirements}{2}{subsubsection.1.2.2}}
\newlabel{eq:PRI}{{5}{2}{Pulse Pattern \& Power Requirements}{equation.1.5}{}}
\newlabel{eq:illumArea}{{6}{2}{Pulse Pattern \& Power Requirements}{equation.1.6}{}}
\newlabel{eq:transmPower}{{7}{3}{Pulse Pattern \& Power Requirements}{equation.1.7}{}}
\@writefile{toc}{\defcounter {refsection}{0}\relax }\@writefile{toc}{\contentsline {subsubsection}{\numberline {1.2.3}Further considerations}{3}{subsubsection.1.2.3}}
\@writefile{toc}{\defcounter {refsection}{0}\relax }\@writefile{toc}{\contentsline {subsection}{\numberline {1.3}InSAR Applications}{3}{subsection.1.3}}
\newlabel{eq:interferogram}{{8}{3}{InSAR Applications}{equation.1.8}{}}
\@writefile{toc}{\defcounter {refsection}{0}\relax }\@writefile{toc}{\contentsline {subsubsection}{\numberline {1.3.1}Phase Noise Estimation}{3}{subsubsection.1.3.1}}
\newlabel{eq:interfCoherence_def}{{9}{3}{Phase Noise Estimation}{equation.1.9}{}}
\newlabel{eq:interfCoherence_SNR}{{10}{4}{Phase Noise Estimation}{equation.1.10}{}}
\newlabel{eq:receivedPower}{{11}{4}{Phase Noise Estimation}{equation.1.11}{}}
\newlabel{eq:SNR}{{12}{4}{Phase Noise Estimation}{equation.1.12}{}}
\newlabel{eq:phaseDispers_CRLB}{{13}{4}{Phase Noise Estimation}{equation.1.13}{}}
\@writefile{toc}{\defcounter {refsection}{0}\relax }\@writefile{toc}{\contentsline {subsubsection}{\numberline {1.3.2}Accuracy Requirements}{4}{subsubsection.1.3.2}}
\newlabel{eq:phaseDiff_BF}{{14}{4}{Accuracy Requirements}{equation.1.14}{}}
\newlabel{eq:phaseDiff}{{15}{4}{Accuracy Requirements}{equation.1.15}{}}
\newlabel{eq:min_window_size}{{16}{4}{Accuracy Requirements}{equation.1.16}{}}
\@writefile{toc}{\defcounter {refsection}{0}\relax }\@writefile{toc}{\contentsline {section}{\numberline {2}Focusing of Raw SAR Data}{5}{section.2}}
\@writefile{toc}{\defcounter {refsection}{0}\relax }\@writefile{toc}{\contentsline {subsection}{\numberline {2.1}Introduction}{5}{subsection.2.1}}
\@writefile{lot}{\defcounter {refsection}{0}\relax }\@writefile{lot}{\contentsline {table}{\numberline {2}{\ignorespaces Reference parameters for raw SAR data synthesis\relax }}{5}{table.caption.2}}
\newlabel{tab:SAR_synth_params}{{2}{5}{Reference parameters for raw SAR data synthesis\relax }{table.caption.2}{}}
\@writefile{lot}{\defcounter {refsection}{0}\relax }\@writefile{lot}{\contentsline {table}{\numberline {3}{\ignorespaces SAR dataset\relax }}{5}{table.caption.3}}
\newlabel{tab:datasetP1}{{3}{5}{SAR dataset\relax }{table.caption.3}{}}
\newlabel{fig:input_img}{{1a}{5}{Input image (aerial view of Milan: 45.46N, 9.19E)\relax }{figure.caption.4}{}}
\newlabel{sub@fig:input_img}{{a}{5}{Input image (aerial view of Milan: 45.46N, 9.19E)\relax }{figure.caption.4}{}}
\newlabel{fig:raw_data}{{1b}{5}{Synthesized raw SAR data\relax }{figure.caption.4}{}}
\newlabel{sub@fig:raw_data}{{b}{5}{Synthesized raw SAR data\relax }{figure.caption.4}{}}
\@writefile{lof}{\defcounter {refsection}{0}\relax }\@writefile{lof}{\contentsline {figure}{\numberline {1}{\ignorespaces  Input and corresponding synthesized data\relax }}{5}{figure.caption.4}}
\newlabel{fig:input_and_rawData}{{1}{5}{Input and corresponding synthesized data\relax }{figure.caption.4}{}}
\@writefile{toc}{\defcounter {refsection}{0}\relax }\@writefile{toc}{\contentsline {subsection}{\numberline {2.2}Focusing Algorithm}{6}{subsection.2.2}}
\newlabel{eq:D_RC}{{17}{6}{Focusing Algorithm}{equation.2.17}{}}
\@writefile{lof}{\defcounter {refsection}{0}\relax }\@writefile{lof}{\contentsline {figure}{\numberline {2}{\ignorespaces  Transmitted waveform both in time and frequency domain\relax }}{6}{figure.caption.5}}
\newlabel{fig:transmittedWaveform}{{2}{6}{Transmitted waveform both in time and frequency domain\relax }{figure.caption.5}{}}
\newlabel{eq:D_foc}{{18}{6}{Focusing Algorithm}{equation.2.18}{}}
\@writefile{lot}{\defcounter {refsection}{0}\relax }\@writefile{lot}{\contentsline {table}{\numberline {4}{\ignorespaces Computational cost of the tested azimuth-compression algorithms\relax }}{6}{table.caption.6}}
\newlabel{tab:cpuTime_azCompr}{{4}{6}{Computational cost of the tested azimuth-compression algorithms\relax }{table.caption.6}{}}
\@writefile{lof}{\defcounter {refsection}{0}\relax }\@writefile{lof}{\contentsline {figure}{\numberline {3}{\ignorespaces  Focused data obtained using 1D matched filtering\relax }}{7}{figure.caption.7}}
\newlabel{fig:focused_data_1DMatchedFilt}{{3}{7}{Focused data obtained using 1D matched filtering\relax }{figure.caption.7}{}}
\@writefile{lof}{\defcounter {refsection}{0}\relax }\@writefile{lof}{\contentsline {figure}{\numberline {4}{\ignorespaces  Focused data obtained using TDBP\relax }}{7}{figure.caption.8}}
\newlabel{fig:focused_data_TDBP}{{4}{7}{Focused data obtained using TDBP\relax }{figure.caption.8}{}}
\abx@aux@refcontextdefaultsdone
\abx@aux@defaultrefcontext{0}{principles2007guidelines}{anyt/global/}
\abx@aux@defaultrefcontext{0}{richards2005fundamentals}{anyt/global/}
\abx@aux@defaultrefcontext{0}{ulaby1981microwave}{anyt/global/}
\abx@aux@defaultrefcontext{0}{woodhouse2017introduction}{anyt/global/}
