\contentsline {chapter}{\numberline {1}Introduction}{1}{chapter.1}
\contentsline {section}{\numberline {1.1}Initial discussion}{1}{section.1.1}
\contentsline {subsection}{\numberline {1.1.1}A figure template}{1}{subsection.1.1.1}
\contentsline {subsection}{\numberline {1.1.2}A table template}{2}{subsection.1.1.2}
\contentsline {subsubsection}{An equation}{2}{section*.7}
\contentsline {chapter}{\numberline {2}Another chapter}{3}{chapter.2}
