\relax 
\providecommand\hyper@newdestlabel[2]{}
\providecommand\HyperFirstAtBeginDocument{\AtBeginDocument}
\HyperFirstAtBeginDocument{\ifx\hyper@anchor\@undefined
\global\let\oldcontentsline\contentsline
\gdef\contentsline#1#2#3#4{\oldcontentsline{#1}{#2}{#3}}
\global\let\oldnewlabel\newlabel
\gdef\newlabel#1#2{\newlabelxx{#1}#2}
\gdef\newlabelxx#1#2#3#4#5#6{\oldnewlabel{#1}{{#2}{#3}}}
\AtEndDocument{\ifx\hyper@anchor\@undefined
\let\contentsline\oldcontentsline
\let\newlabel\oldnewlabel
\fi}
\fi}
\global\let\hyper@last\relax 
\gdef\HyperFirstAtBeginDocument#1{#1}
\providecommand\HyField@AuxAddToFields[1]{}
\providecommand\HyField@AuxAddToCoFields[2]{}
\citation{a}
\citation{b}
\citation{c}
\citation{d}
\citation{e}
\citation{f}
\@writefile{toc}{\contentsline {chapter}{\numberline {1}Introduction}{1}{chapter.1}}
\@writefile{lof}{\addvspace {10\p@ }}
\@writefile{lot}{\addvspace {10\p@ }}
\@writefile{toc}{\contentsline {section}{\numberline {1.1}Initial discussion}{1}{section.1.1}}
\@writefile{toc}{\contentsline {subsection}{\numberline {1.1.1}A figure template}{1}{subsection.1.1.1}}
\@writefile{lof}{\contentsline {figure}{\numberline {1.1}{\ignorespaces Doc Brown acting in Back to the Future}}{1}{figure.1.1}}
\newlabel{fig:doc}{{1.1}{1}{Doc Brown acting in Back to the Future}{figure.1.1}{}}
\@writefile{toc}{\contentsline {subsection}{\numberline {1.1.2}A table template}{2}{subsection.1.1.2}}
\@writefile{lot}{\contentsline {table}{\numberline {1.1}{\ignorespaces The template table has a caption before the table}}{2}{table.1.1}}
\newlabel{tab:sample}{{1.1}{2}{The template table has a caption before the table}{table.1.1}{}}
\@writefile{toc}{\contentsline {subsubsection}{An equation}{2}{section*.7}}
\newlabel{eq:ex}{{1.1}{2}{An equation}{equation.1.1.1}{}}
\@writefile{toc}{\contentsline {chapter}{\numberline {2}Another chapter}{3}{chapter.2}}
\@writefile{lof}{\addvspace {10\p@ }}
\@writefile{lot}{\addvspace {10\p@ }}
\bibcite{a}{1}
\bibcite{b}{2}
\bibcite{c}{3}
\bibcite{d}{4}
\bibcite{e}{5}
\bibcite{f}{6}
\bibcite{g}{7}
\bibcite{h}{8}
\bibcite{i}{9}
\bibcite{j}{10}
\bibcite{k}{11}
\bibcite{l}{12}
\bibcite{m}{13}
\bibcite{n}{14}
\bibcite{o}{15}
\bibcite{p}{16}
\bibcite{q}{17}
\bibcite{r}{18}
\bibcite{s}{19}
\bibcite{t}{20}
